<svg id="Layer_1" data-name="Layer 1" xmlns="http://www.w3.org/2000/svg" viewBox="0 0 1920 1080">
  <title>Maletas1</title>
  
  <rect class="maletaH" x="731.6" y="23.4" width="456.7999" height="184.1" style="fill: none; stroke: #e5c86a !important; stroke-miterlimit: 10; stroke-width: 45px !important"/>
</svg>
