<svg id="Layer_1" data-name="Layer 1" xmlns="http://www.w3.org/2000/svg" xmlns:xlink="http://www.w3.org/1999/xlink" viewBox="0 0 1366 768">
  <title>Montero</title>
  <g id="Layer_1-2" data-name="Layer 1">
    <g id="Francisco_Botella" data-name="Francisco Botella">
      <image width="937" height="1405" transform="translate(0.4573 -21.2773) scale(0.7086)" xlink:href="/static/SVG/products/Artboard 51.jpg" style="isolation: isolate"/>
    </g>
    <g id="Francisco_Base" data-name="Francisco Base">
      <rect x="553.59998" y="294.70001" width="432.5" height="2" style="fill: #282828"/>
      <text transform="translate(1110.04944 358.48755)" style="isolation: isolate;font-size: 13.522899627685547px;fill: #282828;font-family: FjallaOne-Regular, Fjalla One">50</text>
      <text transform="translate(1123.76367 353.98486)" style="isolation: isolate;font-size: 7.883900165557861px;fill: #282828;font-family: FjallaOne-Regular, Fjalla One">TH</text>
      <text transform="translate(1110.04944 372.83765)" style="isolation: isolate;font-size: 13.522899627685547px;fill: #282828;font-family: FjallaOne-Regular, Fjalla One">ANNIVERSARY</text>

      <text transform="translate(629.1596 280.5767)" style="font-size: 21.523290634155273px;fill: #b8b7b7;font-family: FjallaOne-Regular, Fjalla One" onclick="selectProd('PALIDO')" class="menu">PÁLIDO</text>
      <text transform="translate(714.1269 280.5767)" style="font-size: 21.523290634155273px;fill: #b8b7b7;font-family: FjallaOne-Regular, Fjalla One" onclick="selectProd('RESERVA')" class="menu">RESERVA</text>
      <text transform="translate(813.3243 280.5767)" style="font-size: 21.523290634155273px;fill: #282828;font-family: FjallaOne-Regular, Fjalla One" onclick="selectProd('FRANCISCO MONTERO')" class="menu">FRANCISCO MONTERO</text>
      <text transform="translate(552.0564 280.5767)" style="font-size: 21.523290634155273px;fill: #b8b7b7;font-family: FjallaOne-Regular, Fjalla One" onclick="selectProd('PLATA')" class="menu">PLATA</text>

      <text transform="translate(549.0957 373.21106)" style="isolation: isolate;font-size: 69.84259796142578px;fill: #282828;font-family: FjallaOne-Regular, Fjalla One">FRANCISCO MONTERO</text>
      <g>
        <text transform="translate(553.1123 404.427)" style="isolation: isolate;font-size: 18.491500854492188px;fill: #661a02;font-family: Share-Bold, Share;font-weight: 700">An <tspan x="24.94482" y="0" style="letter-spacing: -0.01502485025073049em">ex</tspan><tspan x="42.77051" y="0">clusi</tspan><tspan x="77.95898" y="0" style="letter-spacing: -0.01502485025073049em">v</tspan><tspan x="86.77881" y="0">e rum to mark special o</tspan><tspan x="270.34229" y="0" style="letter-spacing: -0.010007764929748428em">c</tspan><tspan x="277.68311" y="0" style="letter-spacing: 0.00002640571221569506em">casions. C</tspan><tspan x="352.49854" y="0" style="letter-spacing: -0.014998444538514795em">r</tspan><tspan x="358.74854" y="0">eated to </tspan><tspan x="428.95996" y="0" style="letter-spacing: -0.009981359217532734em">c</tspan><tspan x="436.30127" y="0" style="letter-spacing: -0.00002640571221569506em">eleb</tspan><tspan x="469.30811" y="0" style="letter-spacing: -0.004990679608766367em">r</tspan><tspan x="475.74316" y="0">ate the</tspan></text>
        <text transform="translate(553.1123 426.62695)" style="isolation: isolate;font-size: 18.491500854492188px;fill: #661a02;font-family: Share-Bold, Share;font-weight: 700">50th anni<tspan x="72.33691" y="0" style="letter-spacing: -0.014998444538514795em">v</tspan><tspan x="81.15723" y="0" style="letter-spacing: -0.00002640571221569506em">e</tspan><tspan x="90.19922" y="0" style="letter-spacing: -0.004964273896550671em">r</tspan><tspan x="96.63477" y="0" style="letter-spacing: -0.00002640571221569506em">sary of the distillery and aged in casks of the same age.</tspan></text>
      </g>
      <g id="Botones" class="ProdBnts">
        <g id="Comprar" class="ProdBtn" onclick="buyProduct('montero')">
          <circle cx="564.09998" cy="466.5" r="1.40001" style="fill: #b8b7b7"/>
          <path d="M563.3,461.4c0,.3.2.4.6.4h8.2c1.1,0,1.1,0,1.4-1.2H563.2C563.2,460.9,563.3,461.1,563.3,461.4Z" style="fill: #b8b7b7"/>
          <circle cx="571.20001" cy="466.5" r="1.40001" style="fill: #b8b7b7"/>
          <path d="M561.9,455.9a6.3863,6.3863,0,0,1,.2.7c0,.4.3.5.7.5h10.5c1.1,0,1.1,0,1.3-1.1v-.1Z" style="fill: #b8b7b7"/>
          <path d="M562.7,459.1c0,.3.2.4.5.4h10.1a.51962.51962,0,0,0,.4-.2c.1-.3.2-.7.3-1h-11.5A1.88513,1.88513,0,0,1,562.7,459.1Z" style="fill: #b8b7b7"/>
          <path d="M567.6,444.8a14,14,0,1,0,14,14A14.04114,14.04114,0,0,0,567.6,444.8Zm-3.5,24.1a2.4,2.4,0,1,1,2.4-2.4h0a2.43339,2.43339,0,0,1-2.4,2.4Zm7.1,0a2.4,2.4,0,1,1,2.4-2.4h0a2.43347,2.43347,0,0,1-2.4,2.4Zm4.7-13.4c-.6,2.3-1.2,4.6-1.7,6.9a.85787.85787,0,0,1-.7.6H563.1c-.4,0-.7-.2-.7-.6q-1.35-5.4-2.7-10.8c0-.1-.1-.3-.1-.4h-.5c-.4,0-.7-.1-.8-.4a.52879.52879,0,0,1,.4-.7h1.8c.3,1.1.5,2.2.8,3.3a3.55412,3.55412,0,0,1,.2,1c0,.3.2.4.5.4h13a.74932.74932,0,0,1,.5.1c.3-.1.5.2.4.6Z" style="fill: #b8b7b7"/>
          <text transform="translate(536.65601 488.97705)" style="isolation: isolate;font-size: 18.489999771118164px;fill: #282828;font-family: Share-Regular, Share">B<tspan x="9.4668" y="0" style="letter-spacing: -0.010008577395391106em">u</tspan><tspan x="18.36035" y="0">y n</tspan><tspan x="41.08447" y="0" style="letter-spacing: -0.009982169539466592em">o</tspan><tspan x="50.32959" y="0">w</tspan></text>
        </g>
        <g id="Reseñas" class="ProdBtn resena" onclick="selectSubMenu('resena')">
          <path d="M628.7,444.8a14,14,0,1,0,14,14h0A13.977,13.977,0,0,0,628.7,444.8Zm-1.3,14.1v4.6h-4.6v-4.6l2.7-4.8h2.1l-1.9,4.8Zm7.2,0v4.6H630v-4.6l2.7-4.8h2.1l-1.9,4.8Z" style="fill: #b8b7b7"/>
          <text transform="translate(598.53497 488.97705)" style="isolation: isolate;font-size: 18.489999771118164px;fill: #282828;font-family: Share-Regular, Share">R<tspan x="9.52246" y="0" style="letter-spacing: -0.015026070021048919em">e</tspan><tspan x="17.89795" y="0" style="letter-spacing: 0.000026407855924514793em">vi</tspan><tspan x="30.97021" y="0" style="letter-spacing: -0.009982169539466592em">e</tspan><tspan x="39.43848" y="0" style="letter-spacing: -0.008001580345127983em">w</tspan><tspan x="51.67871" y="0" style="letter-spacing: 0.000026407855924514793em">s</tspan></text>
        </g>
        <g id="Recetas" class="ProdBtn receta" onclick="selectSubMenu('receta')">
          <g>
            <path d="M684.4,462.1a1.20486,1.20486,0,0,0,.5.5c1.4.1,2.7.3,4.1.3,2.1,0,4.1-.1,6.2-.2.3-3.6.7-7,1-10.4H683.4C683.7,455.5,684,458.8,684.4,462.1Zm10.7-5.7c-.2,1.9-.4,3.6-.5,5.5a51.314,51.314,0,0,1-9.6,0c-.2-1.8-.4-3.6-.5-5.5Z" style="fill: #b8b7b7"/>
            <path d="M689.8,444.8a14,14,0,1,0,14,14h0A13.97694,13.97694,0,0,0,689.8,444.8Zm7.5,7.2c-.4,4.7-.9,9.3-1.4,14,0,.5-.3.7-.8.7H684.3c-.5,0-.7-.2-.8-.7-.4-4.6-.9-9.2-1.3-13.7-.1-1,0-1.1,1-1.1h13.1c1-.1,1.1,0,1,.8Z" style="fill: #b8b7b7"/>
          </g>
          <text transform="translate(665.41333 488.97705)" style="isolation: isolate;font-size: 18.489999771118164px;fill: #282828;font-family: Share-Regular, Share">Recipe</text>
        </g>
        <g id="DondeComprar" class="ProdBtn" onclick="gotoTag('mapContainer')">
          <g>
            <path d="M748.4,451.8a4.6,4.6,0,1,0,4.6,4.6A4.58771,4.58771,0,0,0,748.4,451.8Z" style="fill: #b8b7b7"/>
            <path d="M750.8,444.8a13.9,13.9,0,1,0,13.9,13.9,13.87037,13.87037,0,0,0-13.9-13.9Zm7.7,21.1a2.36084,2.36084,0,0,1-.9.8,1.07744,1.07744,0,0,1-.8.2.76371.76371,0,0,1-.5-.2l-3-3a.73471.73471,0,0,1-.2-.6,1.85333,1.85333,0,0,1,.2-.7v-.1h0A15.92214,15.92214,0,0,1,752,461h0a5.747,5.747,0,0,1-4.6,1.1,5.39775,5.39775,0,0,1-3.6-2.1,5.97729,5.97729,0,0,1,.8-8.3,5.86142,5.86142,0,0,1,7.3-.1,5.488,5.488,0,0,1,2.3,3.9,5.6044,5.6044,0,0,1-1.2,4.3l1.4,1.3c.1-.1.3-.1.4-.2h.6c.1,0,.1.1.2.1.4.4.8.8,1.1,1.1.6.6,1.3,1.3,1.9,1.9a.61839.61839,0,0,1,.2.7q.15.90006-.30005,1.2Z" style="fill: #b8b7b7"/>
          </g>
          <text transform="translate(728.43213 488.97729)" style="isolation: isolate;font-size: 18.489999771118164px;fill: #282828;font-family: Share-Regular, Share">Whe<tspan x="28.89941" y="0" style="letter-spacing: -0.014999662165124402em">r</tspan><tspan x="34.87158" y="0" style="letter-spacing: 0.000026407855924514793em">e</tspan></text>
          <text transform="translate(726.83221 504.97729)" style="isolation: isolate;font-size: 18.489999771118164px;fill: #282828;font-family: Share-Regular, Share">to b<tspan x="29.39893" y="0" style="letter-spacing: -0.010008577395391106em">u</tspan><tspan x="38.29248" y="0">y</tspan></text>
        </g>
      </g>
      <text transform="translate(82.3628 702.68921)" style="isolation: isolate;font-size: 14.900699615478516px;fill: #282828;font-family: Share-Regular, Share;letter-spacing: -0.01998909918233627em">A<tspan x="7.15234" y="0" style="letter-spacing: 0.00003276901505301028em">vailable in 70cl</tspan></text>
      <text transform="translate(56.4623 720.58911)" style="isolation: isolate;font-size: 14.900699615478516px;fill: #282828;font-family: Share-Regular, Share">bottle with gift case. </text>
      <text transform="translate(131.9333 738.48926)" style="isolation: isolate;font-size: 14.900699615478516px;fill: #282828;font-family: Share-Regular, Share">40° A<tspan x="30.73926" y="0" style="letter-spacing: -0.004980890288057563em">B</tspan><tspan x="38.29395" y="0" style="letter-spacing: -0.04997274795584068em">V</tspan><tspan x="44.59717" y="0">.</tspan></text>
    </g>
    <g id="Plata_Resena" data-name="Plata Resena">
      <text class="resena" transform="translate(552.61029 532.52026)" style="isolation: isolate;font-size: 18.491500854492188px;fill: #282828;font-family: Share-Regular, Share">“</text>
      <text class="resena" transform="translate(559.49902 598.52026)" style="isolation: isolate;font-size: 18.491500854492188px;fill: #282828;font-family: Share-Bold, Share;font-weight: 700">- Custodio L. Zamar</text>
      <text class="resena" transform="translate(710.4433 598.52026)" style="isolation: isolate;font-size: 18.491500854492188px;fill: #282828;font-family: Share-Bold, Share;font-weight: 700">r</text>
      <text class="resena" transform="translate(716.87793 598.52026)" style="isolation: isolate;font-size: 18.491500854492188px;fill: #282828;font-family: Share-Bold, Share;font-weight: 700">a / Wine <tspan x="66.16162" y="0" style="letter-spacing: -0.008000930801355603em">w</tspan><tspan x="77.88525" y="0" style="letter-spacing: -0.00002640571221569506em">aite</tspan><tspan x="107.63721" y="0" style="letter-spacing: -0.049986013224310746em">r</tspan><tspan x="113.24023" y="0">, Zalacain </tspan><tspan x="192.51172" y="0" style="letter-spacing: -0.014998444538514795em">r</tspan><tspan x="198.76172" y="0">estau</tspan><tspan x="241.08789" y="0" style="letter-spacing: -0.004964273896550671em">r</tspan><tspan x="247.52344" y="0" style="letter-spacing: -0.00002640571221569506em">ant.</tspan></text>
      <text class="resena" transform="translate(552.61029 642.52026)" style="isolation: isolate;font-size: 18.491500854492188px;fill: #282828;font-family: Share-Regular, Share">“</text>
      <text class="resena" transform="translate(559.53119 686.52026)" style="isolation: isolate;font-size: 18.491500854492188px;fill: #282828;font-family: Share-Bold, Share;font-weight: 700">- </text>
      <text class="resena" transform="translate(573.86182 686.52026)" style="isolation: isolate;font-size: 18.491500854492188px;fill: #282828;font-family: Share-Bold, Share;font-weight: 700"><tspan style="letter-spacing: -0.03498756868579595em">P</tspan><tspan x="8.96826" y="0">ed</tspan><tspan x="27.7002" y="0" style="letter-spacing: -0.014998444538514795em">r</tspan><tspan x="33.9502" y="0">o </tspan><tspan x="48.92822" y="0" style="letter-spacing: -0.02999688907702959em">P</tspan><tspan x="57.98877" y="0">arias / Ron Monte</tspan><tspan x="194.23193" y="0" style="letter-spacing: -0.014998444538514795em">r</tspan><tspan x="200.48193" y="0">o distillery visitor</tspan></text>
      <text class="resena" transform="translate(559.44012 532.52026)" style="isolation: isolate;font-size: 18.491500854492188px;fill: #282828;font-family: Share-Regular, Share">Its golden amber <tspan x="131.47266" y="0" style="letter-spacing: -0.009981359217532734em">c</tspan><tspan x="138.7583" y="0" style="letter-spacing: -0.00002640571221569506em">olor gi</tspan><tspan x="187.7417" y="0" style="letter-spacing: -0.01502485025073049em">v</tspan><tspan x="196.00684" y="0">es it brillian</tspan><tspan x="284.76465" y="0" style="letter-spacing: -0.009981359217532734em">c</tspan><tspan x="292.05029" y="0">e. The st</tspan><tspan x="353.81055" y="0" style="letter-spacing: -0.014998444538514795em">r</tspan><tspan x="359.7832" y="0">ong a</tspan><tspan x="401.90625" y="0" style="letter-spacing: -0.014998444538514795em">r</tspan><tspan x="407.87891" y="0">oma is a</tspan><tspan x="470.17578" y="0" style="letter-spacing: -0.009981359217532734em">cc</tspan><tspan x="484.74707" y="0">ented with fla</tspan><tspan x="587.18848" y="0" style="letter-spacing: -0.014998444538514795em">v</tspan><tspan x="595.4541" y="0">o</tspan><tspan x="604.88477" y="0" style="letter-spacing: -0.004990679608766367em">r</tspan><tspan x="611.04248" y="0">s of</tspan></text>
      <text class="resena" transform="translate(559.44012 554.72021)" style="isolation: isolate;font-size: 18.491500854492188px;fill: #282828;font-family: Share-Regular, Share"><tspan style="letter-spacing: -0.014998444538514795em">ex</tspan><tspan x="16.67871" y="0">otic f</tspan><tspan x="54.60449" y="0" style="letter-spacing: -0.014998444538514795em">r</tspan><tspan x="60.57715" y="0" style="letter-spacing: -0.00002640571221569506em">osty fruits and </tspan><tspan x="172.91113" y="0" style="letter-spacing: -0.008000930801355603em">s</tspan><tspan x="180.19678" y="0" style="letter-spacing: -0.009981359217532734em">w</tspan><tspan x="192.40137" y="0">eet spi</tspan><tspan x="241.64307" y="0" style="letter-spacing: -0.009981359217532734em">c</tspan><tspan x="248.92871" y="0">es. Sa</tspan><tspan x="290.99609" y="0" style="letter-spacing: -0.014998444538514795em">v</tspan><tspan x="299.26172" y="0" style="letter-spacing: -0.00002640571221569506em">or the gentle </tspan><tspan x="400.44531" y="0" style="letter-spacing: -0.009981359217532734em">c</tspan><tspan x="407.73096" y="0">ompl</tspan><tspan x="444.7876" y="0" style="letter-spacing: -0.014998444538514795em">e</tspan><tspan x="453.16406" y="0">xity and smooth taste that</tspan></text>
      <text class="resena" transform="translate(559.44012 576.92017)" style="isolation: isolate;font-size: 18.491500854492188px;fill: #282828;font-family: Share-Regular, Share">culminates in a <tspan x="116.95703" y="0" style="letter-spacing: -0.01502485025073049em">v</tspan><tspan x="125.22217" y="0">ery balan</tspan><tspan x="194.76758" y="0" style="letter-spacing: -0.009981359217532734em">c</tspan><tspan x="202.05322" y="0">ed spirit with a lingering taste that is fine and delicate.&quot;</tspan></text>
      <text class="resena" transform="translate(559.44012 642.5199)" style="isolation: isolate;font-size: 18.491500854492188px;fill: #282828;font-family: Share-Regular, Share">I bought it for <tspan x="109.65283" y="0" style="letter-spacing: -0.009981359217532734em">m</tspan><tspan x="122.9668" y="0">y dad but I ended</tspan></text>
      <text class="resena" transform="translate(559.44012 664.71997)" style="isolation: isolate;font-size: 18.491500854492188px;fill: #282828;font-family: Share-Regular, Share">up drinking it <tspan x="104.75293" y="0" style="letter-spacing: -0.009981359217532734em">m</tspan><tspan x="118.06689" y="0">yself.&quot;</tspan></text>
    </g>
    <g id="Palido_Recetas" data-name="Palido Recetas">
      <text class="receta" transform="translate(552.28052 532.51831)" style="isolation: isolate;font-size: 18.491500854492188px;fill: #282828;font-family: Share-Bold, Share;font-weight: 700">El <tspan x="19.37891" y="0" style="letter-spacing: -0.010007764929748428em">F</tspan><tspan x="28.125" y="0" style="letter-spacing: -0.004964273896550671em">r</tspan><tspan x="34.56055" y="0" style="letter-spacing: -0.00002640571221569506em">ancis</tspan><tspan x="73.90918" y="0" style="letter-spacing: -0.009981359217532734em">c</tspan><tspan x="81.25049" y="0">o</tspan></text>
      <text class="receta" transform="translate(552.28052 554.51831)" style="isolation: isolate;font-size: 18.491500854492188px;fill: #282828;font-family: Share-Regular, Share">60 ml of Ron <tspan x="98.50244" y="0" style="letter-spacing: -0.009981359217532734em">F</tspan><tspan x="106.78662" y="0" style="letter-spacing: -0.004964273896550671em">r</tspan><tspan x="112.94482" y="0">ancis</tspan><tspan x="150.62939" y="0" style="letter-spacing: -0.009981359217532734em">c</tspan><tspan x="157.91504" y="0">o Monte</tspan><tspan x="217.17969" y="0" style="letter-spacing: -0.014998444538514795em">r</tspan><tspan x="223.15234" y="0">o and 2-3 f</tspan><tspan x="306.86182" y="0" style="letter-spacing: -0.014998444538514795em">r</tspan><tspan x="312.83447" y="0">ozen kumquats.</tspan></text>
      <text class="receta" transform="translate(552.28052 598.91821)" style="isolation: isolate;font-size: 18.491500854492188px;fill: #282828;font-family: Share-Regular, Share">Ser<tspan x="22.9292" y="0" style="letter-spacing: -0.01502485025073049em">v</tspan><tspan x="31.19434" y="0">e El </tspan><tspan x="63.11035" y="0" style="letter-spacing: -0.009981359217532734em">F</tspan><tspan x="71.39453" y="0" style="letter-spacing: -0.004990679608766367em">r</tspan><tspan x="77.55225" y="0">ancis</tspan><tspan x="115.2373" y="0" style="letter-spacing: -0.009981359217532734em">c</tspan><tspan x="122.52295" y="0" style="letter-spacing: -0.00002640571221569506em">o in tulip, snifter or balloon </tspan><tspan x="332.34277" y="0" style="letter-spacing: -0.009981359217532734em">c</tspan><tspan x="339.62842" y="0" style="letter-spacing: -0.00002640571221569506em">ognac gla</tspan><tspan x="412.6499" y="0" style="letter-spacing: -0.010007764929748428em">s</tspan><tspan x="419.89844" y="0">ses and add f</tspan><tspan x="518.69678" y="0" style="letter-spacing: -0.014972038826299099em">r</tspan><tspan x="524.66992" y="0" style="letter-spacing: -0.00002640571221569506em">ozen kumquats.</tspan></text>
    </g>
  </g>
</svg>
