<svg id="Layer_1" data-name="Layer 1" xmlns="http://www.w3.org/2000/svg" xmlns:xlink="http://www.w3.org/1999/xlink" viewBox="0 0 1366 768">
  <title>Palido</title>
  <g id="Palido_Botella" data-name="Palido Botella">
    <image width="1862" height="2924" transform="translate(89.9254 1.0475) scale(0.3545)" xlink:href="/static/SVG/products/Artboard 11.jpg" style="isolation: isolate"/>
  </g>
  <g id="Palido_Base" data-name="Palido Base">
    <text transform="translate(549.0957 373.21106)" style="isolation: isolate;font-size: 69.84259796142578px;fill: #282828;font-family: FjallaOne-Regular, Fjalla One">PALIDO</text>

    <text transform="translate(629.1596 280.5767)" style="font-size: 21.523290634155273px;fill: #282828;font-family: FjallaOne-Regular, Fjalla One" onclick="selectProd('PALIDO')" class="menu">PÁLIDO</text>
    <text transform="translate(714.1269 280.5767)" style="font-size: 21.523290634155273px;fill: #b8b7b7;font-family: FjallaOne-Regular, Fjalla One" onclick="selectProd('RESERVA')" class="menu">RESERVA</text>
    <text transform="translate(813.3243 280.5767)" style="font-size: 21.523290634155273px;fill: #b8b7b7;font-family: FjallaOne-Regular, Fjalla One" onclick="selectProd('FRANCISCO MONTERO')" class="menu">FRANCISCO MONTERO</text>
    <text transform="translate(552.0564 280.5767)" style="font-size: 21.523290634155273px;fill: #b8b7b7;font-family: FjallaOne-Regular, Fjalla One" onclick="selectProd('PLATA')" class="menu">PLATA</text>
    <rect x="553.59998" y="294.70001" width="432.5" height="2" style="fill: #282828"/>
    <g style="isolation: isolate">
      <text transform="translate(553.1123 404.427)" style="isolation: isolate;font-size: 18.491500854492188px;fill: #974b27;font-family: Share-Bold, Share;font-weight: 700">In Motril, <tspan x="76.38672" y="0" style="letter-spacing: -0.014998444538514795em">y</tspan><tspan x="85.22559" y="0" style="letter-spacing: 0.00002640571221569506em">ou don&apos;t ask for just a</tspan><tspan x="257.4707" y="0" style="letter-spacing: -0.009981359217532734em">n</tspan><tspan x="266.97559" y="0">y rum.</tspan></text>
      <text transform="translate(553.1123 426.62695)" style="isolation: isolate;font-size: 18.491500854492188px;fill: #974b27;font-family: Share-Bold, Share;font-weight: 700"><tspan style="letter-spacing: -0.06498445776282555em">Y</tspan><tspan x="8.61719" y="0">ou ask for Ron Monte</tspan><tspan x="174.39111" y="0" style="letter-spacing: -0.014998444538514795em">r</tspan><tspan x="180.64111" y="0">o </tspan><tspan x="195.61914" y="0" style="letter-spacing: -0.02999688907702959em">P</tspan><tspan x="204.67969" y="0">alido.</tspan></text>
    </g>
    <g id="Botones" class="ProdBnts">
      <g id="Comprar" class="ProdBtn" onclick="buyProduct('montero')">
        <circle cx="564.09998" cy="466.5" r="1.40001" style="fill: #b8b7b7"/>
        <path d="M563.3,461.4c0,.3.2.4.6.4h8.2c1.1,0,1.1,0,1.4-1.2H563.2C563.2,460.9,563.3,461.1,563.3,461.4Z" style="fill: #b8b7b7"/>
        <circle cx="571.20001" cy="466.5" r="1.40001" style="fill: #b8b7b7"/>
        <path d="M561.9,455.9a6.3863,6.3863,0,0,1,.2.7c0,.4.3.5.7.5h10.5c1.1,0,1.1,0,1.3-1.1v-.1Z" style="fill: #b8b7b7"/>
        <path d="M562.7,459.1c0,.3.2.4.5.4h10.1a.51962.51962,0,0,0,.4-.2c.1-.3.2-.7.3-1h-11.5A1.88513,1.88513,0,0,1,562.7,459.1Z" style="fill: #b8b7b7"/>
        <path d="M567.6,444.8a14,14,0,1,0,14,14A14.04114,14.04114,0,0,0,567.6,444.8Zm-3.5,24.1a2.4,2.4,0,1,1,2.4-2.4h0a2.43339,2.43339,0,0,1-2.4,2.4Zm7.1,0a2.4,2.4,0,1,1,2.4-2.4h0a2.43347,2.43347,0,0,1-2.4,2.4Zm4.7-13.4c-.6,2.3-1.2,4.6-1.7,6.9a.85787.85787,0,0,1-.7.6H563.1c-.4,0-.7-.2-.7-.6q-1.35-5.4-2.7-10.8c0-.1-.1-.3-.1-.4h-.5c-.4,0-.7-.1-.8-.4a.52879.52879,0,0,1,.4-.7h1.8c.3,1.1.5,2.2.8,3.3a3.55412,3.55412,0,0,1,.2,1c0,.3.2.4.5.4h13a.74932.74932,0,0,1,.5.1c.3-.1.5.2.4.6Z" style="fill: #b8b7b7"/>
        <text transform="translate(536.65601 488.97705)" style="isolation: isolate;font-size: 18.489999771118164px;fill: #282828;font-family: Share-Regular, Share">B<tspan x="9.4668" y="0" style="letter-spacing: -0.010008577395391106em">u</tspan><tspan x="18.36035" y="0">y n</tspan><tspan x="41.08447" y="0" style="letter-spacing: -0.009982169539466592em">o</tspan><tspan x="50.32959" y="0">w</tspan></text>
      </g>
      <g id="Reseñas" class="ProdBtn resena" onclick="selectSubMenu('resena')">
        <path d="M628.7,444.8a14,14,0,1,0,14,14h0A13.977,13.977,0,0,0,628.7,444.8Zm-1.3,14.1v4.6h-4.6v-4.6l2.7-4.8h2.1l-1.9,4.8Zm7.2,0v4.6H630v-4.6l2.7-4.8h2.1l-1.9,4.8Z" style="fill: #b8b7b7"/>
        <text transform="translate(598.53497 488.97705)" style="isolation: isolate;font-size: 18.489999771118164px;fill: #282828;font-family: Share-Regular, Share">R<tspan x="9.52246" y="0" style="letter-spacing: -0.015026070021048919em">e</tspan><tspan x="17.89795" y="0" style="letter-spacing: 0.000026407855924514793em">vi</tspan><tspan x="30.97021" y="0" style="letter-spacing: -0.009982169539466592em">e</tspan><tspan x="39.43848" y="0" style="letter-spacing: -0.008001580345127983em">w</tspan><tspan x="51.67871" y="0" style="letter-spacing: 0.000026407855924514793em">s</tspan></text>
      </g>
      <g id="Recetas" class="ProdBtn receta" onclick="selectSubMenu('receta')">
        <g>
          <path d="M684.4,462.1a1.20486,1.20486,0,0,0,.5.5c1.4.1,2.7.3,4.1.3,2.1,0,4.1-.1,6.2-.2.3-3.6.7-7,1-10.4H683.4C683.7,455.5,684,458.8,684.4,462.1Zm10.7-5.7c-.2,1.9-.4,3.6-.5,5.5a51.314,51.314,0,0,1-9.6,0c-.2-1.8-.4-3.6-.5-5.5Z" style="fill: #b8b7b7"/>
          <path d="M689.8,444.8a14,14,0,1,0,14,14h0A13.97694,13.97694,0,0,0,689.8,444.8Zm7.5,7.2c-.4,4.7-.9,9.3-1.4,14,0,.5-.3.7-.8.7H684.3c-.5,0-.7-.2-.8-.7-.4-4.6-.9-9.2-1.3-13.7-.1-1,0-1.1,1-1.1h13.1c1-.1,1.1,0,1,.8Z" style="fill: #b8b7b7"/>
        </g>
        <text transform="translate(665.41333 488.97705)" style="isolation: isolate;font-size: 18.489999771118164px;fill: #282828;font-family: Share-Regular, Share">Recipe</text>
      </g>
      <g id="DondeComprar" class="ProdBtn" onclick="gotoTag('mapContainer')">
        <g>
          <path d="M748.4,451.8a4.6,4.6,0,1,0,4.6,4.6A4.58771,4.58771,0,0,0,748.4,451.8Z" style="fill: #b8b7b7"/>
          <path d="M750.8,444.8a13.9,13.9,0,1,0,13.9,13.9,13.87037,13.87037,0,0,0-13.9-13.9Zm7.7,21.1a2.36084,2.36084,0,0,1-.9.8,1.07744,1.07744,0,0,1-.8.2.76371.76371,0,0,1-.5-.2l-3-3a.73471.73471,0,0,1-.2-.6,1.85333,1.85333,0,0,1,.2-.7v-.1h0A15.92214,15.92214,0,0,1,752,461h0a5.747,5.747,0,0,1-4.6,1.1,5.39775,5.39775,0,0,1-3.6-2.1,5.97729,5.97729,0,0,1,.8-8.3,5.86142,5.86142,0,0,1,7.3-.1,5.488,5.488,0,0,1,2.3,3.9,5.6044,5.6044,0,0,1-1.2,4.3l1.4,1.3c.1-.1.3-.1.4-.2h.6c.1,0,.1.1.2.1.4.4.8.8,1.1,1.1.6.6,1.3,1.3,1.9,1.9a.61839.61839,0,0,1,.2.7q.15.90006-.30005,1.2Z" style="fill: #b8b7b7"/>
        </g>
        <text transform="translate(728.43213 488.97729)" style="isolation: isolate;font-size: 18.489999771118164px;fill: #282828;font-family: Share-Regular, Share">Whe<tspan x="28.89941" y="0" style="letter-spacing: -0.014999662165124402em">r</tspan><tspan x="34.87158" y="0" style="letter-spacing: 0.000026407855924514793em">e</tspan></text>
        <text transform="translate(726.83221 504.97729)" style="isolation: isolate;font-size: 18.489999771118164px;fill: #282828;font-family: Share-Regular, Share">to b<tspan x="29.39893" y="0" style="letter-spacing: -0.010008577395391106em">u</tspan><tspan x="38.29248" y="0">y</tspan></text>
      </g>
    </g>
    <g style="isolation: isolate">
      <text transform="translate(233.89059 702.68921)" style="isolation: isolate;font-size: 14.900699615478516px;fill: #282828;font-family: Share-Regular, Share;letter-spacing: -0.01998909918233627em">A<tspan x="7.15234" y="0" style="letter-spacing: 0.00003276901505301028em">vailable in</tspan></text>
      <text transform="translate(183.79059 720.58923)" style="isolation: isolate;font-size: 14.900699615478516px;fill: #282828;font-family: Share-Regular, Share">1L and 70cl bottles. </text>
      <text transform="translate(244.29059 738.48926)" style="isolation: isolate;font-size: 14.900699615478516px;fill: #282828;font-family: Share-Regular, Share">3<tspan x="7.00293" y="0" style="letter-spacing: -0.09997826492673437em">7</tspan><tspan x="12.51611" y="0">.5° A</tspan><tspan x="39.67969" y="0" style="letter-spacing: -0.004980890288057563em">B</tspan><tspan x="47.23438" y="0" style="letter-spacing: -0.04997274795584068em">V</tspan><tspan x="53.5376" y="0">.</tspan></text>
    </g>
  </g>
  <g id="Plata_Resena" data-name="Plata Resena">
    <text class="resena" transform="translate(552.61029 532.52026)" style="isolation: isolate;font-size: 18.491500854492188px;fill: #282828;font-family: Share-Regular, Share">“</text>
    <text class="resena" transform="translate(559.49902 598.52026)" style="isolation: isolate;font-size: 18.491500854492188px;fill: #282828;font-family: Share-Bold, Share;font-weight: 700">- Custodio L. Zamar</text>
    <text class="resena" transform="translate(710.4433 598.52026)" style="isolation: isolate;font-size: 18.491500854492188px;fill: #282828;font-family: Share-Bold, Share;font-weight: 700">r</text>
    <text class="resena" transform="translate(716.87793 598.52026)" style="isolation: isolate;font-size: 18.491500854492188px;fill: #282828;font-family: Share-Bold, Share;font-weight: 700">a / Wine <tspan x="66.16162" y="0" style="letter-spacing: -0.008000930801355603em">w</tspan><tspan x="77.88525" y="0" style="letter-spacing: -0.00002640571221569506em">aite</tspan><tspan x="107.63721" y="0" style="letter-spacing: -0.049986013224310746em">r</tspan><tspan x="113.24023" y="0">, Zalacain </tspan><tspan x="192.51172" y="0" style="letter-spacing: -0.014998444538514795em">r</tspan><tspan x="198.76172" y="0">estau</tspan><tspan x="241.08789" y="0" style="letter-spacing: -0.004964273896550671em">r</tspan><tspan x="247.52344" y="0" style="letter-spacing: -0.00002640571221569506em">ant.</tspan></text>
    <text class="resena" transform="translate(552.61029 642.52026)" style="isolation: isolate;font-size: 18.491500854492188px;fill: #282828;font-family: Share-Regular, Share">“</text>
    <text class="resena" transform="translate(559.53119 664.08325)" style="isolation: isolate;font-size: 18.491500854492188px;fill: #282828;font-family: Share-Bold, Share;font-weight: 700">- </text>
    <text class="resena" transform="translate(573.86182 664.08325)" style="isolation: isolate;font-size: 18.491500854492188px;fill: #282828;font-family: Share-Bold, Share;font-weight: 700">Edua<tspan x="37.51855" y="0" style="letter-spacing: -0.014998444538514795em">r</tspan><tspan x="43.76855" y="0">do Leon / Bartender</tspan></text>
    <g style="isolation: isolate">
      <text class="resena" transform="translate(559.44012 532.52026)" style="isolation: isolate;font-size: 18.491500854492188px;fill: #282828;font-family: Share-Regular, Share">Amber <tspan x="51.68311" y="0" style="letter-spacing: -0.009981359217532734em">c</tspan><tspan x="58.96875" y="0">olo</tspan><tspan x="82.72998" y="0" style="letter-spacing: -0.049986013224310746em">r</tspan><tspan x="88.05566" y="0">, with a rich and distincti</tspan><tspan x="271.67383" y="0" style="letter-spacing: -0.014998444538514795em">v</tspan><tspan x="279.93945" y="0">e fla</tspan><tspan x="312.09521" y="0" style="letter-spacing: -0.014998444538514795em">v</tspan><tspan x="320.36084" y="0">o</tspan><tspan x="329.7915" y="0" style="letter-spacing: -0.049986013224310746em">r</tspan><tspan x="335.11719" y="0">. The al</tspan><tspan x="388.64893" y="0" style="letter-spacing: -0.009981359217532734em">c</tspan><tspan x="395.93457" y="0">ohol</tspan></text>
      <text class="resena" transform="translate(559.44012 554.72021)" style="isolation: isolate;font-size: 18.491500854492188px;fill: #282828;font-family: Share-Regular, Share">is <tspan x="16.77148" y="0" style="letter-spacing: -0.009981359217532734em">w</tspan><tspan x="28.97607" y="0">ell integ</tspan><tspan x="90.34814" y="0" style="letter-spacing: -0.004990679608766367em">r</tspan><tspan x="96.50586" y="0" style="letter-spacing: 0.00002640571221569506em">ated, for an a</tspan><tspan x="196.56152" y="0" style="letter-spacing: -0.014972038826299099em">r</tspan><tspan x="202.53467" y="0" style="letter-spacing: -0.00002640571221569506em">oma that is smooth and delicate.</tspan></text>
      <text class="resena" transform="translate(559.44012 576.92017)" style="isolation: isolate;font-size: 18.491500854492188px;fill: #282828;font-family: Share-Regular, Share">The<tspan x="25.86914" y="0" style="letter-spacing: -0.014998444538514795em">r</tspan><tspan x="31.8418" y="0">e a</tspan><tspan x="54.19727" y="0" style="letter-spacing: -0.014998444538514795em">r</tspan><tspan x="60.16992" y="0">e subtle suga</tspan><tspan x="158.70996" y="0" style="letter-spacing: -0.014998444538514795em">r</tspan><tspan x="164.68262" y="0">cane nuan</tspan><tspan x="240.55176" y="0" style="letter-spacing: -0.009981359217532734em">c</tspan><tspan x="247.8374" y="0">es, with hints of toasted notes.&quot;</tspan></text>
    </g>
    <text class="resena" transform="translate(559.44012 642.5199)" style="isolation: isolate;font-size: 18.491500854492188px;fill: #282828;font-family: Share-Regular, Share">It&apos;s total <tspan x="67.73291" y="0" style="letter-spacing: -0.007974525089139909em">a</tspan><tspan x="76.47949" y="0" style="letter-spacing: -0.010007764929748428em">w</tspan><tspan x="88.68359" y="0">esomene</tspan><tspan x="154.36426" y="0" style="letter-spacing: -0.009981359217532734em">s</tspan><tspan x="161.61328" y="0" style="letter-spacing: -0.00002640571221569506em">s.&quot;</tspan></text>
  </g>
  <g id="Plata_Receta" data-name="Plata Receta">
    <text class="receta" transform="translate(552.28052 532.51831)" style="isolation: isolate;font-size: 18.491500854492188px;fill: #282828;font-family: Share-Bold, Share;font-weight: 700">Monte<tspan x="47.28223" y="0" style="letter-spacing: -0.014998444538514795em">r</tspan><tspan x="53.53223" y="0">o Mango Daiquiri</tspan></text>
    <g style="isolation: isolate">
      <text class="receta" transform="translate(552.28052 554.51831)" style="isolation: isolate;font-size: 18.491500854492188px;fill: #282828;font-family: Share-Regular, Share">40-60 ml of Ron Monte<tspan x="170.06348" y="0" style="letter-spacing: -0.014998444538514795em">r</tspan><tspan x="176.03613" y="0">o </tspan><tspan x="190.27441" y="0" style="letter-spacing: -0.02999688907702959em">P</tspan><tspan x="198.96533" y="0">alido, jui</tspan><tspan x="263.24072" y="0" style="letter-spacing: -0.009981359217532734em">c</tspan><tspan x="270.52637" y="0">e of 1/2 lemon,</tspan></text>
      <text class="receta" transform="translate(552.28052 576.71826)" style="isolation: isolate;font-size: 18.491500854492188px;fill: #282828;font-family: Share-Regular, Share">2 tablespoons of suga<tspan x="163.25879" y="0" style="letter-spacing: -0.049986013224310746em">r</tspan><tspan x="168.58447" y="0">, 1/4 ripe mango, dry lemon sli</tspan><tspan x="395.63818" y="0" style="letter-spacing: -0.009981359217532734em">c</tspan><tspan x="402.92383" y="0" style="letter-spacing: -0.00002640571221569506em">e and i</tspan><tspan x="453.29346" y="0" style="letter-spacing: -0.009981359217532734em">c</tspan><tspan x="460.5791" y="0">e.</tspan></text>
      <text class="receta" transform="translate(552.28052 598.91833)" style="isolation: isolate;font-size: 18.491500854492188px;fill: #282828;font-family: Share-Regular, Share"> </text>
      <text class="receta" transform="translate(552.28052 621.11829)" style="isolation: isolate;font-size: 18.491500854492188px;fill: #282828;font-family: Share-Regular, Share">In a blende<tspan x="83.83887" y="0" style="letter-spacing: -0.049986013224310746em">r</tspan><tspan x="89.16455" y="0">, </tspan><tspan x="98.2251" y="0" style="letter-spacing: -0.009981359217532734em">c</tspan><tspan x="105.51074" y="0">ombine lemon jui</tspan><tspan x="233.80322" y="0" style="letter-spacing: -0.009981359217532734em">c</tspan><tspan x="241.08887" y="0">e, Ron Monte</tspan><tspan x="336.94727" y="0" style="letter-spacing: -0.014998444538514795em">r</tspan><tspan x="342.91992" y="0">o </tspan><tspan x="357.1582" y="0" style="letter-spacing: -0.02999688907702959em">P</tspan><tspan x="365.84912" y="0">alido,</tspan></text>
      <text class="receta" transform="translate(552.28052 643.31836)" style="isolation: isolate;font-size: 18.491500854492188px;fill: #282828;font-family: Share-Regular, Share">suga<tspan x="35.04102" y="0" style="letter-spacing: -0.049986013224310746em">r</tspan><tspan x="40.3667" y="0">, mango and i</tspan><tspan x="141.95752" y="0" style="letter-spacing: -0.009981359217532734em">c</tspan><tspan x="149.24316" y="0">e. Mix </tspan><tspan x="196.5249" y="0" style="letter-spacing: -0.010007764929748428em">w</tspan><tspan x="208.729" y="0">ell and garnish with dry lemon sli</tspan><tspan x="458.10254" y="0" style="letter-spacing: -0.010007764929748428em">c</tspan><tspan x="465.3877" y="0" style="letter-spacing: 0.00002640571221569506em">e.</tspan></text>
      <text class="receta" transform="translate(552.28052 665.41833)" style="isolation: isolate;font-size: 18.491500854492188px;fill: #282828;font-family: Share-Regular, Share"> </text>
      <text class="receta" transform="translate(552.28052 687.61829)" style="isolation: isolate;font-size: 18.491500854492188px;fill: #282828;font-family: Share-Regular, Share">Note: <tspan x="43.19531" y="0" style="letter-spacing: -0.06495805205060985em">Y</tspan><tspan x="51.07324" y="0" style="letter-spacing: -0.00002640571221569506em">ou may substitute </tspan><tspan x="188.2041" y="0" style="letter-spacing: -0.014998444538514795em">y</tspan><tspan x="196.48828" y="0">our fa</tspan><tspan x="240.70068" y="0" style="letter-spacing: -0.014998444538514795em">v</tspan><tspan x="248.96631" y="0">orite fruit for the mango.</tspan></text>
      <text class="receta" transform="translate(552.28052 709.81836)" style="isolation: isolate;font-size: 18.491500854492188px;fill: #282828;font-family: Share-Regular, Share"> </text>
    </g>
  </g>
</svg>
