<svg id="Layer_1" data-name="Layer 1" xmlns="http://www.w3.org/2000/svg" viewBox="0 0 3194.2 768">
  <title>TimeLine1</title>
  <g>
    <path d="M500.5,200.2h9l17.8,49.1h.3c-.1-1.1-.2-2.4-.3-3.8s-.3-3-.4-4.8-.2-3.8-.3-6.1-.1-4.8-.1-7.6V200.2h10v73.4h-9.1l-17.7-47.8h-.3q.15,1.95.3,4.2c.1,1.5.3,3.3.4,5.3s.2,4.4.3,7.1.1,5.9.1,9.6v21.6h-9.9V200.2Z" style="fill: #fff"/>
    <path d="M561.9,200.2h11.2V254a44.4919,44.4919,0,0,0,.3,5.7,10.2107,10.2107,0,0,0,1.1,3.6,4.3543,4.3543,0,0,0,1.9,1.9,6.0874,6.0874,0,0,0,2.8.6,6.839,6.839,0,0,0,2.9-.6,4.0942,4.0942,0,0,0,2-1.9,12.59,12.59,0,0,0,1.2-3.6,30.3759,30.3759,0,0,0,.4-5.7V200.2h11.1V251a40.8962,40.8962,0,0,1-.9,9.2,23.8355,23.8355,0,0,1-2.3,6.4,15.3749,15.3749,0,0,1-3.2,4.1,13.7916,13.7916,0,0,1-3.8,2.3,14.0148,14.0148,0,0,1-3.9,1c-1.3.1-2.5.2-3.5.2-1.1,0-2.2-.1-3.5-.2a12.5611,12.5611,0,0,1-3.8-1,14.9484,14.9484,0,0,1-3.7-2.3,13.602,13.602,0,0,1-3.2-4.1,26.2132,26.2132,0,0,1-2.3-6.4,41.4173,41.4173,0,0,1-.8-9.2Z" style="fill: #fff"/>
    <path d="M622.4,200.2h27.2V209H633.5v22h12.4v8.8H633.5v25.1H650v8.8H622.4Z" style="fill: #fff"/>
    <path d="M668.4,258.7a30.4221,30.4221,0,0,1,.3-4.4c.2-1.4.5-2.8.8-4.3h8.6v3.6a26.8012,26.8012,0,0,0,.4,5.2,12.1406,12.1406,0,0,0,1.2,3.8,7.2793,7.2793,0,0,0,2.2,2.4,6.1287,6.1287,0,0,0,3.4.8,6.94,6.94,0,0,0,4.9-1.7c1.2-1.1,1.7-2.9,1.7-5.1,0-1.1-.1-2.2-.2-3.2a10.4884,10.4884,0,0,0-.8-2.9,17.702,17.702,0,0,0-1.6-3c-.7-1.1-1.5-2.2-2.5-3.5l-11.6-13.8a32.0568,32.0568,0,0,1-4.8-8,22.36,22.36,0,0,1-1.7-8.6,20.4656,20.4656,0,0,1,1.1-6.7,15.2953,15.2953,0,0,1,3.3-5.3,13.8375,13.8375,0,0,1,5.3-3.4,20.1262,20.1262,0,0,1,7.2-1.2,21.3834,21.3834,0,0,1,8.1,1.4,13.42,13.42,0,0,1,5.2,3.6,12.8724,12.8724,0,0,1,2.7,5,21.0421,21.0421,0,0,1,.8,5.6,20.5787,20.5787,0,0,1-.4,4.4c-.3,1.4-.5,2.8-.8,4.4h-8.6v-3.5c0-3.9-.6-6.9-1.7-9a5.6547,5.6547,0,0,0-5.5-3.1,6.1222,6.1222,0,0,0-4.7,1.7,6.8022,6.8022,0,0,0-1.5,4.7,22.9844,22.9844,0,0,0,.2,2.8,8.782,8.782,0,0,0,.7,2.3,12.8151,12.8151,0,0,0,1.1,2q.6.9,1.5,2.1l12.9,15.6a45.4982,45.4982,0,0,1,5.4,8.8,22.6727,22.6727,0,0,1,1.9,9,19.0179,19.0179,0,0,1-1.2,7,14.8689,14.8689,0,0,1-3.5,5.3,17.0226,17.0226,0,0,1-5.5,3.4,20.6953,20.6953,0,0,1-7.3,1.2,22.2519,22.2519,0,0,1-8.3-1.3,14.4045,14.4045,0,0,1-5.2-3.5,12.96,12.96,0,0,1-2.8-5A17.5816,17.5816,0,0,1,668.4,258.7Z" style="fill: #fff"/>
    <path d="M732.3,209H720.5v-8.8h34.7V209H743.4v64.6H732.3Z" style="fill: #fff"/>
    <path d="M775.9,200.2H788c1.4,0,2.9.1,4.5.2a27.8082,27.8082,0,0,1,4.9.8,19.6,19.6,0,0,1,4.8,2,14.2279,14.2279,0,0,1,4.1,3.7,19.65,19.65,0,0,1,2.9,5.8,29.7412,29.7412,0,0,1,1.1,8.5V223c0,5.6-.8,10.1-2.4,13.6a15.5057,15.5057,0,0,1-7.1,7.6l11.8,29.3H800.8L791,246h-4.2v27.5H775.9Zm12.6,37.9a17.2549,17.2549,0,0,0,4.9-.6,7.4059,7.4059,0,0,0,3.3-2.2,10.5663,10.5663,0,0,0,1.8-4,27.0831,27.0831,0,0,0,.6-6.2v-5.8a23.1171,23.1171,0,0,0-.5-4.9,7.292,7.292,0,0,0-1.7-3.4,7.9571,7.9571,0,0,0-3.2-2,17.7939,17.7939,0,0,0-5.1-.6h-1.7v29.8h1.6Z" style="fill: #fff"/>
    <path d="M842.2,200.2H855l13.6,73.4H857.3l-2-13.1H841.9L840,273.6H828.7ZM854,252.1l-5.2-36.6h-.5l-5.2,36.6Z" style="fill: #fff"/>
  </g>
  <g>
    <path d="M339.4,302.6H365v70.6h30.3V302.6h25.6V471.2H395.3V393.3H365v77.9H339.4Z" style="fill: #fff"/>
    <path d="M449.8,302.6h25.6V471.2H449.8Z" style="fill: #fff"/>
    <path d="M497.7,437.1a76.8128,76.8128,0,0,1,.6-10c.4-3.1,1.1-6.4,1.9-9.9H520v8.2a84.0186,84.0186,0,0,0,.8,12,28.4674,28.4674,0,0,0,2.8,8.8,13.3334,13.3334,0,0,0,5.1,5.4,15.7794,15.7794,0,0,0,7.8,1.8c4.9,0,8.6-1.3,11.2-4s3.8-6.6,3.8-11.7a55.8047,55.8047,0,0,0-.5-7.3,32.81,32.81,0,0,0-1.9-6.6,45.9419,45.9419,0,0,0-3.6-6.9,91.5591,91.5591,0,0,0-5.8-8l-26.6-31.7a84.6473,84.6473,0,0,1-11-18.3,50.113,50.113,0,0,1-3.8-19.7,44.8282,44.8282,0,0,1,2.6-15.4,33.6355,33.6355,0,0,1,7.6-12.1,34.3183,34.3183,0,0,1,12.2-7.9,44.4222,44.4222,0,0,1,16.4-2.8c7.4,0,13.6,1.1,18.6,3.2a32.0914,32.0914,0,0,1,11.9,8.3,30.9135,30.9135,0,0,1,6.3,11.5,46.5511,46.5511,0,0,1,1.8,12.8,61.4042,61.4042,0,0,1-.8,10c-.6,3.1-1.2,6.4-1.9,10.1H553.3v-8c0-8.9-1.3-15.8-3.8-20.6-2.6-4.8-6.7-7.2-12.5-7.2-4.8,0-8.4,1.3-10.8,4s-3.6,6.2-3.6,10.7a40.5812,40.5812,0,0,0,.5,6.4,27.3991,27.3991,0,0,0,1.6,5.3,30.3636,30.3636,0,0,0,2.5,4.7c1,1.5,2.1,3.1,3.4,4.7l29.7,35.9a100.7653,100.7653,0,0,1,12.4,20.3,49.73,49.73,0,0,1,4.3,20.6,43.7106,43.7106,0,0,1-2.8,16.2,34.5351,34.5351,0,0,1-8,12.2,35.0709,35.0709,0,0,1-12.6,7.7,48.35,48.35,0,0,1-16.7,2.7c-7.6,0-14-1-19-3.1a31.0184,31.0184,0,0,1-12-8.1,29.181,29.181,0,0,1-6.3-11.4A41.7523,41.7523,0,0,1,497.7,437.1Z" style="fill: #fff"/>
    <path d="M614.2,322.8H587V302.7h79.8v20.1h-27V471.2H614.2Z" style="fill: #fff"/>
    <path d="M721.4,472.7a70.9554,70.9554,0,0,1-8.8-.6,32.4257,32.4257,0,0,1-9.4-2.7,32.7879,32.7879,0,0,1-8.9-5.9,34.6717,34.6717,0,0,1-7.6-10,59.35,59.35,0,0,1-5.3-15.3,105.1768,105.1768,0,0,1-2-21.8V356.7a105.1842,105.1842,0,0,1,2-21.8,55.0028,55.0028,0,0,1,5.4-15.2,33.99,33.99,0,0,1,7.6-9.8,36.1889,36.1889,0,0,1,9-5.6,35.72,35.72,0,0,1,9.3-2.5,67.9434,67.9434,0,0,1,8.6-.6c2.5,0,5.3.2,8.3.5a39.064,39.064,0,0,1,9.2,2.4,32.1534,32.1534,0,0,1,8.9,5.4,32.5513,32.5513,0,0,1,7.7,9.8,61.7124,61.7124,0,0,1,5.4,15.3,106.88,106.88,0,0,1,2,22.1v59.7a96.9185,96.9185,0,0,1-2.1,21.6,64.8047,64.8047,0,0,1-5.4,15.3,35.4142,35.4142,0,0,1-7.7,10.1,37.6521,37.6521,0,0,1-9,5.9,32.7587,32.7587,0,0,1-9.1,2.8A61.8772,61.8772,0,0,1,721.4,472.7Zm0-19.2a15.2551,15.2551,0,0,0,6.6-1.3,10.2362,10.2362,0,0,0,4.6-4.4,28.6892,28.6892,0,0,0,2.8-8.3,78.9519,78.9519,0,0,0,.9-13.1V349.7a84.2779,84.2779,0,0,0-.9-13.5,25.4179,25.4179,0,0,0-2.8-8.7,10.99,10.99,0,0,0-4.6-4.7,16.4927,16.4927,0,0,0-13.3,0,10.6562,10.6562,0,0,0-4.7,4.7,25.4157,25.4157,0,0,0-2.8,8.7,84.2663,84.2663,0,0,0-.9,13.5v76.7a78.9412,78.9412,0,0,0,.9,13.1,25.1321,25.1321,0,0,0,2.8,8.3,9.9289,9.9289,0,0,0,4.7,4.4A17.0153,17.0153,0,0,0,721.4,453.5Z" style="fill: #fff"/>
    <path d="M787.1,302.6h27.7c3.2,0,6.6.1,10.4.4a62.0475,62.0475,0,0,1,11.3,1.9,47.58,47.58,0,0,1,11,4.6,32.1987,32.1987,0,0,1,9.4,8.4,44.11,44.11,0,0,1,6.6,13.4,68.974,68.974,0,0,1,2.5,19.5V355c0,12.8-1.8,23.3-5.5,31.3-3.7,8.1-9.1,13.9-16.3,17.4l27,67.4h-27L821.8,408h-9.6v63.1H787.1ZM816,389.7a37.5058,37.5058,0,0,0,11.4-1.5,15.1335,15.1335,0,0,0,7.5-5,21.0384,21.0384,0,0,0,4.1-9.3,63.96,63.96,0,0,0,1.3-14.3V346.3a47.1715,47.1715,0,0,0-1.2-11.3,17.0291,17.0291,0,0,0-4-7.8,16.6073,16.6073,0,0,0-7.5-4.5,38.4478,38.4478,0,0,0-11.6-1.5h-3.8v68.4H816Z" style="fill: #fff"/>
    <path d="M890.5,302.6h25.6V471.2H890.5Z" style="fill: #fff"/>
    <path d="M963.5,302.6h29.4l31.2,168.6H998.2L993.6,441H962.8l-4.4,30.2h-26Zm27.1,119.2-11.8-84h-1.1l-11.9,84Z" style="fill: #fff"/>
  </g>
  <rect x="339.4" y="372.6" width="954.7" height="21.2" style="fill: #dd4c23"/>
  <g style="isolation: isolate">
    <text transform="translate(1102.8652 388.405)" style="isolation: isolate;font-size: 15.591099739074707px;fill: #fff;font-family: Share-Regular, Share;letter-spacing: 0.24600248109102432em">R</text>
    <text transform="translate(1114.73 388.405)" style="isolation: isolate;font-size: 15.591099739074707px;fill: #fff;font-family: Share-Regular, Share;letter-spacing: 0.25499073215062em">ON DE M</text>
    <text transform="translate(1193.2461 388.405)" style="isolation: isolate;font-size: 15.591099739074707px;fill: #fff;font-family: Share-Regular, Share;letter-spacing: 0.23497856341514392em">O</text>
    <text transform="translate(1205.4692 388.405)" style="isolation: isolate;font-size: 15.591099739074707px;fill: #fff;font-family: Share-Regular, Share;letter-spacing: 0.25599290648479095em">TRIL</text>
  </g>
  <rect x="1294.1" y="372.6" width="995.7999" height="21.2" style="fill: #e5c86a"/>
  <g style="isolation: isolate">
    <text transform="translate(1659.1509 388.405)" style="isolation: isolate;font-size: 15.591099739074707px;fill: #282828;font-family: Share-Regular, Share;letter-spacing: 0.25499073215062em">ELABOR</text>
    <text transform="translate(1729.2168 388.405)" style="isolation: isolate;font-size: 15.591099739074707px;fill: #282828;font-family: Share-Regular, Share;letter-spacing: 0.23601205569725772em">A</text>
    <text transform="translate(1740.6919 388.405)" style="isolation: isolate;font-size: 15.591099739074707px;fill: #282828;font-family: Share-Regular, Share;letter-spacing: 0.2550220500985628em">CION TRADICIONAL</text>
  </g>
  <rect x="2289.8" y="372.6" width="203.3999" height="21.2" style="fill: #631e13"/>
  <rect x="2493.2" y="372.6" width="169.7" height="21.2" style="fill: #9ac0d1"/>
  <rect x="2662.8999" y="372.6" width="531.3" height="21.2" style="fill: #f9ae37"/>
  <g style="isolation: isolate">
    <text transform="translate(2304.835 388.405)" style="isolation: isolate;font-size: 15.591099739074707px;fill: #fff;font-family: Share-Regular, Share;letter-spacing: 0.25499073215062em">EL PADRE DEL RON </text>
  </g>
  <text transform="translate(2526.0732 388.405)" style="isolation: isolate;font-size: 15.591099739074707px;fill: #282828;font-family: Share-Regular, Share;letter-spacing: 0.25499073215062em">LA BODEGA</text>
  <g style="isolation: isolate">
    <text transform="translate(2888.5679 388.405)" style="isolation: isolate;font-size: 15.591099739074707px;fill: #282828;font-family: Share-Regular, Share;letter-spacing: 0.23601205569725772em">A</text>
    <text transform="translate(2900.043 388.405)" style="isolation: isolate;font-size: 15.591099739074707px;fill: #282828;font-family: Share-Regular, Share;letter-spacing: 0.25599290648479095em">CTUALI</text>
    <text transform="translate(2964.6826 388.405)" style="isolation: isolate;font-size: 15.591099739074707px;fill: #282828;font-family: Share-Regular, Share;letter-spacing: 0.23601205569725772em">D</text>
    <text transform="translate(2976.563 388.405)" style="isolation: isolate;font-size: 15.591099739074707px;fill: #282828;font-family: Share-Regular, Share;letter-spacing: 0.2560242244327338em">AD</text>
  </g>
  <g id="XV" onclick="activateHist('XV')" class="menu">
    <circle cx="1176.8" cy="273" r="28.8" style="fill: #dd4c23"/>
    <g>
      <path d="M1178.4,274.6V371H1175V274.6Z" style="fill: #dd4c23"/>
      <path d="M1179.4,372.6H1174V273h5.4Zm-3.4-3.2h1.4V276.2H1176Z" style="fill: #dd4c23"/>
    </g>
    <text transform="translate(1164.4515 281.1965)" style="isolation: isolate;font-size: 23.05340003967285px;fill: #fff;font-family: Share-Bold, Share;font-weight: 700">XV</text>
    <g>
      <text transform="translate(1215.5984 258.1965)" style="isolation: isolate;font-size: 11.845000267028809px;fill: #fff;font-family: Share-Regular, Share">La caña de azúcar</text>
      <g style="isolation: isolate">
        <text transform="translate(1215.5984 270.1965)" style="isolation: isolate;font-size: 11.845000267028809px;fill: #fff;font-family: Share-Regular, Share">es int</text>
        <text transform="translate(1241.6804 270.1965)" style="isolation: isolate;font-size: 11.845000267028809px;fill: #fff;font-family: Share-Regular, Share;letter-spacing: -0.01397444829197296em">r</text>
        <text transform="translate(1245.5066 270.1965)" style="isolation: isolate;font-size: 11.845000267028809px;fill: #fff;font-family: Share-Regular, Share">oducida y</text>
      </g>
      <text transform="translate(1215.5984 282.1965)" style="isolation: isolate;font-size: 11.845000267028809px;fill: #fff;font-family: Share-Regular, Share">aclimatada en Motril</text>
      <text transform="translate(1215.5984 294.1965)" style="isolation: isolate;font-size: 11.845000267028809px;fill: #fff;font-family: Share-Regular, Share">por los musulmanes</text>
    </g>
  </g>
  <g id="_02" data-name="02"  onclick="activateHist('02')" class="menu">
    <circle cx="1527.3" cy="273" r="28.8" style="fill: #e5c86a"/>
    <g>
      <path d="M1528.9,274.6V371h-3.4V274.6Z" style="fill: #e5c86a"/>
      <path d="M1529.9,372.6h-5.4V273h5.4Zm-3.4-3.2h1.4V276.2h-1.4Z" style="fill: #e5c86a"/>
    </g>
    <text transform="translate(1516.4176 281.1965)" style="isolation: isolate;font-size: 23.05340003967285px;fill: #282828;font-family: Share-Bold, Share;font-weight: 700">02</text>
    <g>
      <g style="isolation: isolate">
        <text transform="translate(1566.1001 258.1965)" style="isolation: isolate;font-size: 11.845000267028809px;fill: #fff;font-family: Share-Bold, Share;font-weight: 700;letter-spacing: -0.0150050123253043em">F</text>
        <text transform="translate(1571.6436 258.1965)" style="isolation: isolate;font-size: 11.845000267028809px;fill: #fff;font-family: Share-Bold, Share;font-weight: 700">ermentación.</text>
      </g>
      <g style="isolation: isolate">
        <text transform="translate(1566.1001 270.1965)" style="isolation: isolate;font-size: 11.845000267028809px;fill: #fff;font-family: Share-Regular, Share">Los azúca</text>
        <text transform="translate(1611.6079 270.1965)" style="isolation: isolate;font-size: 11.845000267028809px;fill: #fff;font-family: Share-Regular, Share;letter-spacing: -0.0150050123253043em">r</text>
        <text transform="translate(1615.4336 270.1965)" style="isolation: isolate;font-size: 11.845000267028809px;fill: #fff;font-family: Share-Regular, Share">es se</text>
      </g>
      <g style="isolation: isolate">
        <text transform="translate(1566.1001 282.1965)" style="isolation: isolate;font-size: 11.845000267028809px;fill: #fff;font-family: Share-Regular, Share;letter-spacing: -0.00898651837064928em">c</text>
        <text transform="translate(1570.7671 282.1965)" style="isolation: isolate;font-size: 11.845000267028809px;fill: #fff;font-family: Share-Regular, Share">o</text>
        <text transform="translate(1576.8081 282.1965)" style="isolation: isolate;font-size: 11.845000267028809px;fill: #fff;font-family: Share-Regular, Share;letter-spacing: -0.010017082403980618em">n</text>
        <text transform="translate(1582.6831 282.1965)" style="isolation: isolate;font-size: 11.845000267028809px;fill: #fff;font-family: Share-Regular, Share">vierten en</text>
      </g>
      <g style="isolation: isolate">
        <text transform="translate(1566.1001 294.1965)" style="isolation: isolate;font-size: 11.845000267028809px;fill: #fff;font-family: Share-Regular, Share">al</text>
        <text transform="translate(1574.9365 294.1965)" style="isolation: isolate;font-size: 11.845000267028809px;fill: #fff;font-family: Share-Regular, Share;letter-spacing: -0.009975859842647365em">c</text>
        <text transform="translate(1579.603 294.1965)" style="isolation: isolate;font-size: 11.845000267028809px;fill: #fff;font-family: Share-Regular, Share">oholes</text>
      </g>
    </g>
  </g>
  <g id="_04" data-name="04" onclick="activateHist('04')" class="menu">
    <circle cx="1877.8" cy="273" r="28.8" style="fill: #e5c86a"/>
    <g>
      <path d="M1879.5,274.6V371h-3.4V274.6Z" style="fill: #e5c86a"/>
      <path d="M1880.5,372.6h-5.4V273h5.4Zm-3.4-3.2h1.4V276.2h-1.4Z" style="fill: #e5c86a"/>
    </g>
    <text transform="translate(1866.9624 281.1965)" style="isolation: isolate;font-size: 23.05340003967285px;fill: #282828;font-family: Share-Bold, Share;font-weight: 700">04</text>
    <g>
      <text transform="translate(1916.6455 258.1965)" style="isolation: isolate;font-size: 11.845000267028809px;fill: #fff;font-family: Share-Bold, Share;font-weight: 700">Añejamiento.</text>
      <g style="isolation: isolate">
        <text transform="translate(1916.6455 270.1965)" style="isolation: isolate;font-size: 11.845000267028809px;fill: #fff;font-family: Share-Regular, Share">Los al</text>
        <text transform="translate(1944.2202 270.1965)" style="isolation: isolate;font-size: 11.845000267028809px;fill: #fff;font-family: Share-Regular, Share;letter-spacing: -0.00898651837064928em">c</text>
        <text transform="translate(1948.8872 270.1965)" style="isolation: isolate;font-size: 11.845000267028809px;fill: #fff;font-family: Share-Regular, Share">oholes obtenidos</text>
      </g>
      <g style="isolation: isolate">
        <text transform="translate(1916.6455 282.1965)" style="isolation: isolate;font-size: 11.845000267028809px;fill: #fff;font-family: Share-Regular, Share">se e</text>
        <text transform="translate(1935.5732 282.1965)" style="isolation: isolate;font-size: 11.845000267028809px;fill: #fff;font-family: Share-Regular, Share;letter-spacing: -0.010017082403980618em">n</text>
        <text transform="translate(1941.4482 282.1965)" style="isolation: isolate;font-size: 11.845000267028809px;fill: #fff;font-family: Share-Regular, Share;letter-spacing: -0.01397444829197296em">v</text>
        <text transform="translate(1946.7432 282.1965)" style="isolation: isolate;font-size: 11.845000267028809px;fill: #fff;font-family: Share-Regular, Share">eje</text>
        <text transform="translate(1960.7314 282.1965)" style="isolation: isolate;font-size: 11.845000267028809px;fill: #fff;font-family: Share-Regular, Share;letter-spacing: -0.00898651837064928em">c</text>
        <text transform="translate(1965.3984 282.1965)" style="isolation: isolate;font-size: 11.845000267028809px;fill: #fff;font-family: Share-Regular, Share">en en barricas</text>
      </g>
      <g style="isolation: isolate">
        <text transform="translate(1916.6455 294.1965)" style="isolation: isolate;font-size: 11.845000267028809px;fill: #fff;font-family: Share-Regular, Share">ví</text>
        <text transform="translate(1925.0195 294.1965)" style="isolation: isolate;font-size: 11.845000267028809px;fill: #fff;font-family: Share-Regular, Share;letter-spacing: -0.003998588449325597em">r</text>
        <text transform="translate(1928.9644 294.1965)" style="isolation: isolate;font-size: 11.845000267028809px;fill: #fff;font-family: Share-Regular, Share">genes de 500L</text>
      </g>
    </g>
  </g>
  <g id="_06" data-name="06" onclick="activateHist('06')" class="menu">
    <circle cx="2228.2" cy="273" r="28.8" style="fill: #e5c86a"/>
    <g>
      <path d="M2229.9,274.6V371h-3.4V274.6Z" style="fill: #e5c86a"/>
      <path d="M2230.9,372.6h-5.4V273h5.4Zm-3.4-3.2h1.4V276.2h-1.4Z" style="fill: #e5c86a"/>
    </g>
    <text transform="translate(2217.3979 281.1965)" style="isolation: isolate;font-size: 23.05340003967285px;fill: #282828;font-family: Share-Bold, Share;font-weight: 700">06</text>
    <g>
      <text transform="translate(2267.0806 258.1965)" style="isolation: isolate;font-size: 11.845000267028809px;fill: #fff;font-family: Share-Bold, Share;font-weight: 700">Blending</text>
      <g style="isolation: isolate">
        <text transform="translate(2267.0806 270.1965)" style="isolation: isolate;font-size: 11.845000267028809px;fill: #fff;font-family: Share-Regular, Share">El maest</text>
        <text transform="translate(2307.353 270.1965)" style="isolation: isolate;font-size: 11.845000267028809px;fill: #fff;font-family: Share-Regular, Share;letter-spacing: -0.0150050123253043em">r</text>
        <text transform="translate(2311.1787 270.1965)" style="isolation: isolate;font-size: 11.845000267028809px;fill: #fff;font-family: Share-Regular, Share">o </text>
        <text transform="translate(2320.2993 270.1965)" style="isolation: isolate;font-size: 11.845000267028809px;fill: #fff;font-family: Share-Regular, Share;letter-spacing: -0.0150050123253043em">r</text>
        <text transform="translate(2324.125 270.1965)" style="isolation: isolate;font-size: 11.845000267028809px;fill: #fff;font-family: Share-Regular, Share">one</text>
        <text transform="translate(2341.7031 270.1965)" style="isolation: isolate;font-size: 11.845000267028809px;fill: #fff;font-family: Share-Regular, Share;letter-spacing: -0.0150050123253043em">r</text>
        <text transform="translate(2345.5288 270.1965)" style="isolation: isolate;font-size: 11.845000267028809px;fill: #fff;font-family: Share-Regular, Share">o</text>
      </g>
      <g style="isolation: isolate">
        <text transform="translate(2267.0806 282.1965)" style="isolation: isolate;font-size: 11.845000267028809px;fill: #fff;font-family: Share-Regular, Share">define la p</text>
        <text transform="translate(2317.1367 282.1965)" style="isolation: isolate;font-size: 11.845000267028809px;fill: #fff;font-family: Share-Regular, Share;letter-spacing: -0.0150050123253043em">r</text>
        <text transform="translate(2320.9624 282.1965)" style="isolation: isolate;font-size: 11.845000267028809px;fill: #fff;font-family: Share-Regular, Share">opo</text>
        <text transform="translate(2338.9551 282.1965)" style="isolation: isolate;font-size: 11.845000267028809px;fill: #fff;font-family: Share-Regular, Share;letter-spacing: -0.0150050123253043em">r</text>
        <text transform="translate(2342.7808 282.1965)" style="isolation: isolate;font-size: 11.845000267028809px;fill: #fff;font-family: Share-Regular, Share">ción</text>
      </g>
      <g style="isolation: isolate">
        <text transform="translate(2267.0806 294.1965)" style="isolation: isolate;font-size: 11.845000267028809px;fill: #fff;font-family: Share-Regular, Share">final de agua</text>
        <text transform="translate(2329.0645 294.1965)" style="isolation: isolate;font-size: 11.845000267028809px;fill: #fff;font-family: Share-Regular, Share;letter-spacing: -0.01397444829197296em">r</text>
        <text transform="translate(2332.8906 294.1965)" style="isolation: isolate;font-size: 11.845000267028809px;fill: #fff;font-family: Share-Regular, Share">diente</text>
      </g>
      <text transform="translate(2267.0806 306.1965)" style="isolation: isolate;font-size: 11.845000267028809px;fill: #fff;font-family: Share-Regular, Share">y destilados de caña</text>
    </g>
  </g>
  <g id="_01" data-name="01" onclick="activateHist('01')" class="menu">
    <circle cx="1352" cy="493.5" r="28.8" style="fill: #e5c86a"/>
    <g>
      <path d="M1350.3,491.9V395.5h3.4v96.4Z" style="fill: #e5c86a"/>
      <path d="M1349.3,393.8h5.4v99.6h-5.4Zm3.4,3.3h-1.4v93.2h1.4Z" style="fill: #e5c86a"/>
    </g>
    <text transform="translate(1341.1628 501.8728)" style="isolation: isolate;font-size: 23.05340003967285px;fill: #282828;font-family: Share-Bold, Share;font-weight: 700">01</text>
    <g>
      <g style="isolation: isolate">
        <text transform="translate(1390.8478 481.5428)" style="isolation: isolate;font-size: 11.845000267028809px;fill: #fff;font-family: Share-Bold, Share;font-weight: 700">Materia </text>
        <text transform="translate(1431.3214 481.5428)" style="isolation: isolate;font-size: 11.845000267028809px;fill: #fff;font-family: Share-Bold, Share;font-weight: 700;letter-spacing: -0.009975859842647365em">P</text>
        <text transform="translate(1437.3619 481.5428)" style="isolation: isolate;font-size: 11.845000267028809px;fill: #fff;font-family: Share-Bold, Share;font-weight: 700">rima.</text>
      </g>
      <g style="isolation: isolate">
        <text transform="translate(1390.8478 493.5428)" style="isolation: isolate;font-size: 11.845000267028809px;fill: #fff;font-family: Share-Regular, Share;letter-spacing: -0.06900656767186648em">T</text>
        <text transform="translate(1395.0529 493.5428)" style="isolation: isolate;font-size: 11.845000267028809px;fill: #fff;font-family: Share-Regular, Share">odo </text>
        <text transform="translate(1416.1837 493.5428)" style="isolation: isolate;font-size: 11.845000267028809px;fill: #fff;font-family: Share-Regular, Share;letter-spacing: -0.00898651837064928em">c</text>
        <text transform="translate(1420.8507 493.5428)" style="isolation: isolate;font-size: 11.845000267028809px;fill: #fff;font-family: Share-Regular, Share">omienza </text>
        <text transform="translate(1463.528 493.5428)" style="isolation: isolate;font-size: 11.845000267028809px;fill: #fff;font-family: Share-Regular, Share;letter-spacing: -0.009975859842647365em">c</text>
        <text transform="translate(1468.1945 493.5428)" style="isolation: isolate;font-size: 11.845000267028809px;fill: #fff;font-family: Share-Regular, Share">on la </text>
        <text transform="translate(1495.2247 493.5428)" style="isolation: isolate;font-size: 11.845000267028809px;fill: #fff;font-family: Share-Regular, Share;letter-spacing: -0.0150050123253043em">r</text>
        <text transform="translate(1499.0504 493.5428)" style="isolation: isolate;font-size: 11.845000267028809px;fill: #fff;font-family: Share-Regular, Share">e</text>
        <text transform="translate(1504.5939 493.5428)" style="isolation: isolate;font-size: 11.845000267028809px;fill: #fff;font-family: Share-Regular, Share;letter-spacing: -0.009975859842647365em">c</text>
        <text transform="translate(1509.2604 493.5428)" style="isolation: isolate;font-size: 11.845000267028809px;fill: #fff;font-family: Share-Regular, Share">ogida</text>
      </g>
      <text transform="translate(1390.8478 505.5428)" style="isolation: isolate;font-size: 11.845000267028809px;fill: #fff;font-family: Share-Regular, Share">y molienda de la caña de azúcar</text>
      <g style="isolation: isolate">
        <text transform="translate(1390.8478 517.5428)" style="isolation: isolate;font-size: 11.845000267028809px;fill: #fff;font-family: Share-Regular, Share">en el ingenio azuca</text>
        <text transform="translate(1482.6212 517.5428)" style="isolation: isolate;font-size: 11.845000267028809px;fill: #fff;font-family: Share-Regular, Share;letter-spacing: -0.01397444829197296em">r</text>
        <text transform="translate(1486.4474 517.5428)" style="isolation: isolate;font-size: 11.845000267028809px;fill: #fff;font-family: Share-Regular, Share">e</text>
        <text transform="translate(1491.9904 517.5428)" style="isolation: isolate;font-size: 11.845000267028809px;fill: #fff;font-family: Share-Regular, Share;letter-spacing: -0.01397444829197296em">r</text>
        <text transform="translate(1495.8165 517.5428)" style="isolation: isolate;font-size: 11.845000267028809px;fill: #fff;font-family: Share-Regular, Share">o.</text>
      </g>
    </g>
  </g>
  <g id="_03" data-name="03" onclick="activateHist('03')" class="menu">
    <circle cx="1702.5" cy="493.5" r="28.8" style="fill: #e5c86a"/>
    <g>
      <path d="M1700.8,491.9V395.5h3.4v96.4Z" style="fill: #e5c86a"/>
      <path d="M1699.8,393.8h5.4v99.6h-5.4Zm3.4,3.3h-1.4v93.2h1.4Z" style="fill: #e5c86a"/>
    </g>
    <text transform="translate(1691.6338 501.8728)" style="isolation: isolate;font-size: 23.05340003967285px;fill: #282828;font-family: Share-Bold, Share;font-weight: 700">03</text>
    <g>
      <text transform="translate(1741.3182 481.5428)" style="isolation: isolate;font-size: 11.845000267028809px;fill: #fff;font-family: Share-Bold, Share;font-weight: 700">Destilación.</text>
      <text transform="translate(1741.3182 493.5428)" style="isolation: isolate;font-size: 11.845000267028809px;fill: #fff;font-family: Share-Regular, Share">El sistema de destilación de</text>
      <g style="isolation: isolate">
        <text transform="translate(1741.3182 505.5428)" style="isolation: isolate;font-size: 11.845000267028809px;fill: #fff;font-family: Share-Regular, Share">Azuca</text>
        <text transform="translate(1768.3129 505.5428)" style="isolation: isolate;font-size: 11.845000267028809px;fill: #fff;font-family: Share-Regular, Share;letter-spacing: -0.0150050123253043em">r</text>
        <text transform="translate(1772.1385 505.5428)" style="isolation: isolate;font-size: 11.845000267028809px;fill: #fff;font-family: Share-Regular, Share">e</text>
        <text transform="translate(1777.682 505.5428)" style="isolation: isolate;font-size: 11.845000267028809px;fill: #fff;font-family: Share-Regular, Share;letter-spacing: -0.003998588449325597em">r</text>
        <text transform="translate(1781.6263 505.5428)" style="isolation: isolate;font-size: 11.845000267028809px;fill: #fff;font-family: Share-Regular, Share">a Monte</text>
        <text transform="translate(1819.2455 505.5428)" style="isolation: isolate;font-size: 11.845000267028809px;fill: #fff;font-family: Share-Regular, Share;letter-spacing: -0.0150050123253043em">r</text>
        <text transform="translate(1823.0712 505.5428)" style="isolation: isolate;font-size: 11.845000267028809px;fill: #fff;font-family: Share-Regular, Share">o nos permite</text>
      </g>
      <g style="isolation: isolate">
        <text transform="translate(1741.3182 517.5428)" style="isolation: isolate;font-size: 11.845000267028809px;fill: #fff;font-family: Share-Regular, Share">obtener un </text>
        <text transform="translate(1796.1244 517.5428)" style="isolation: isolate;font-size: 11.845000267028809px;fill: #fff;font-family: Share-Regular, Share;letter-spacing: -0.0150050123253043em">r</text>
        <text transform="translate(1799.9501 517.5428)" style="isolation: isolate;font-size: 11.845000267028809px;fill: #fff;font-family: Share-Regular, Share">on de calidad sup</text>
        <text transform="translate(1883.3851 517.5428)" style="isolation: isolate;font-size: 11.845000267028809px;fill: #fff;font-family: Share-Regular, Share;letter-spacing: -0.0150050123253043em">r</text>
        <text transform="translate(1887.2108 517.5428)" style="isolation: isolate;font-size: 11.845000267028809px;fill: #fff;font-family: Share-Regular, Share"><tspan xml:space="preserve">ema.  </tspan></text>
      </g>
    </g>
  </g>
  <g id="_05" data-name="05" onclick="activateHist('05')" class="menu">
    <circle cx="2053" cy="493.5" r="28.8" style="fill: #e5c86a"/>
    <g>
      <path d="M2051.3,491.9V395.5h3.4v96.4Z" style="fill: #e5c86a"/>
      <path d="M2050.3,393.8h5.4v99.6h-5.4Zm3.4,3.3h-1.4v93.2h1.4Z" style="fill: #e5c86a"/>
    </g>
    <text transform="translate(2042.1783 501.8728)" style="isolation: isolate;font-size: 23.05340003967285px;fill: #282828;font-family: Share-Bold, Share;font-weight: 700">05</text>
    <g>
      <g style="isolation: isolate">
        <text transform="translate(2091.8628 481.5428)" style="isolation: isolate;font-size: 11.845000267028809px;fill: #fff;font-family: Share-Bold, Share;font-weight: 700">Sole</text>
        <text transform="translate(2112.3901 481.5428)" style="isolation: isolate;font-size: 11.845000267028809px;fill: #fff;font-family: Share-Bold, Share;font-weight: 700;letter-spacing: -0.003998588449325597em">r</text>
        <text transform="translate(2116.5122 481.5428)" style="isolation: isolate;font-size: 11.845000267028809px;fill: #fff;font-family: Share-Bold, Share;font-weight: 700">as y criade</text>
        <text transform="translate(2170.1929 481.5428)" style="isolation: isolate;font-size: 11.845000267028809px;fill: #fff;font-family: Share-Bold, Share;font-weight: 700;letter-spacing: -0.003998588449325597em">r</text>
        <text transform="translate(2174.3149 481.5428)" style="isolation: isolate;font-size: 11.845000267028809px;fill: #fff;font-family: Share-Bold, Share;font-weight: 700">as.</text>
      </g>
      <g style="isolation: isolate">
        <text transform="translate(2091.8628 493.5428)" style="isolation: isolate;font-size: 11.845000267028809px;fill: #fff;font-family: Share-Regular, Share">Después del tiempo ne</text>
        <text transform="translate(2198.7026 493.5428)" style="isolation: isolate;font-size: 11.845000267028809px;fill: #fff;font-family: Share-Regular, Share;letter-spacing: -0.00898651837064928em">c</text>
        <text transform="translate(2203.3696 493.5428)" style="isolation: isolate;font-size: 11.845000267028809px;fill: #fff;font-family: Share-Regular, Share">esario</text>
      </g>
      <g style="isolation: isolate">
        <text transform="translate(2091.8628 505.5428)" style="isolation: isolate;font-size: 11.845000267028809px;fill: #fff;font-family: Share-Regular, Share">pa</text>
        <text transform="translate(2103.4707 505.5428)" style="isolation: isolate;font-size: 11.845000267028809px;fill: #fff;font-family: Share-Regular, Share;letter-spacing: -0.003998588449325597em">r</text>
        <text transform="translate(2107.415 505.5428)" style="isolation: isolate;font-size: 11.845000267028809px;fill: #fff;font-family: Share-Regular, Share">a obtener las p</text>
        <text transform="translate(2178.6973 505.5428)" style="isolation: isolate;font-size: 11.845000267028809px;fill: #fff;font-family: Share-Regular, Share;letter-spacing: -0.0150050123253043em">r</text>
        <text transform="translate(2182.5229 505.5428)" style="isolation: isolate;font-size: 11.845000267028809px;fill: #fff;font-family: Share-Regular, Share">opiedades</text>
      </g>
      <g style="isolation: isolate">
        <text transform="translate(2091.8628 517.5428)" style="isolation: isolate;font-size: 11.845000267028809px;fill: #fff;font-family: Share-Regular, Share">se p</text>
        <text transform="translate(2111.1577 517.5428)" style="isolation: isolate;font-size: 11.845000267028809px;fill: #fff;font-family: Share-Regular, Share;letter-spacing: -0.01397444829197296em">r</text>
        <text transform="translate(2114.9839 517.5428)" style="isolation: isolate;font-size: 11.845000267028809px;fill: #fff;font-family: Share-Regular, Share">o</text>
        <text transform="translate(2121.0249 517.5428)" style="isolation: isolate;font-size: 11.845000267028809px;fill: #fff;font-family: Share-Regular, Share;letter-spacing: -0.009975859842647365em">c</text>
        <text transform="translate(2125.6914 517.5428)" style="isolation: isolate;font-size: 11.845000267028809px;fill: #fff;font-family: Share-Regular, Share">ede a las mezclas.</text>
      </g>
    </g>
  </g>
  <g id="_1929" data-name="1929" onclick="activateHist('1929')" class="menu">
    <circle cx="2403.5" cy="493.5" r="28.8" style="fill: #631e13"/>
    <g>
      <path d="M2401.8,491.9V395.5h3.4v96.4Z" style="fill: #631e13"/>
      <path d="M2400.8,393.8h5.4v99.6h-5.4Zm3.4,3.3h-1.4v93.2h1.4Z" style="fill: #631e13"/>
    </g>
    <text transform="translate(2381.8018 501.8728)" style="isolation: isolate;font-size: 23.05340003967285px;fill: #fff;font-family: Share-Bold, Share;font-weight: 700">1929</text>
    <g>
      <g style="isolation: isolate">
        <text transform="translate(2442.3208 481.5428)" style="isolation: isolate;font-size: 11.845000267028809px;fill: #fff;font-family: Share-Regular, Share">Na</text>
        <text transform="translate(2454.4971 481.5428)" style="isolation: isolate;font-size: 11.845000267028809px;fill: #fff;font-family: Share-Regular, Share;letter-spacing: -0.00898651837064928em">c</text>
        <text transform="translate(2459.1641 481.5428)" style="isolation: isolate;font-size: 11.845000267028809px;fill: #fff;font-family: Share-Regular, Share">e </text>
        <text transform="translate(2467.7871 481.5428)" style="isolation: isolate;font-size: 11.845000267028809px;fill: #fff;font-family: Share-Regular, Share;letter-spacing: -0.00898651837064928em">F</text>
        <text transform="translate(2473.0938 481.5428)" style="isolation: isolate;font-size: 11.845000267028809px;fill: #fff;font-family: Share-Regular, Share;letter-spacing: -0.003998588449325597em">r</text>
        <text transform="translate(2477.0381 481.5428)" style="isolation: isolate;font-size: 11.845000267028809px;fill: #fff;font-family: Share-Regular, Share">ancis</text>
        <text transform="translate(2501.1777 481.5428)" style="isolation: isolate;font-size: 11.845000267028809px;fill: #fff;font-family: Share-Regular, Share;letter-spacing: -0.00898651837064928em">c</text>
        <text transform="translate(2505.8447 481.5428)" style="isolation: isolate;font-size: 11.845000267028809px;fill: #fff;font-family: Share-Regular, Share">o</text>
      </g>
      <g style="isolation: isolate">
        <text transform="translate(2442.3208 493.5428)" style="isolation: isolate;font-size: 11.845000267028809px;fill: #fff;font-family: Share-Regular, Share">Monte</text>
        <text transform="translate(2471.1631 493.5428)" style="isolation: isolate;font-size: 11.845000267028809px;fill: #fff;font-family: Share-Regular, Share;letter-spacing: -0.0150050123253043em">r</text>
        <text transform="translate(2474.9888 493.5428)" style="isolation: isolate;font-size: 11.845000267028809px;fill: #fff;font-family: Share-Regular, Share">o Martín,</text>
      </g>
      <text transform="translate(2442.3208 505.5428)" style="isolation: isolate;font-size: 11.845000267028809px;fill: #fff;font-family: Share-Regular, Share">fundador de Ron</text>
      <g style="isolation: isolate">
        <text transform="translate(2442.3208 517.5428)" style="isolation: isolate;font-size: 11.845000267028809px;fill: #fff;font-family: Share-Regular, Share">Monte</text>
        <text transform="translate(2471.1631 517.5428)" style="isolation: isolate;font-size: 11.845000267028809px;fill: #fff;font-family: Share-Regular, Share;letter-spacing: -0.0150050123253043em">r</text>
        <text transform="translate(2474.9888 517.5428)" style="isolation: isolate;font-size: 11.845000267028809px;fill: #fff;font-family: Share-Regular, Share"><tspan xml:space="preserve">o   </tspan></text>
      </g>
    </g>
  </g>
  <g id="_1963" data-name="1963" onclick="activateHist('1963')" class="menu">
    <circle cx="2578.7" cy="273" r="28.8" style="fill: #9ac0d1"/>
    <g>
      <path d="M2580.4,274.6V371H2577V274.6Z" style="fill: #9ac0d1"/>
      <path d="M2581.4,372.6H2576V273h5.4Zm-3.4-3.2h1.4V276.2H2578Z" style="fill: #9ac0d1"/>
    </g>
    <text transform="translate(2557.0693 281.1965)" style="isolation: isolate;font-size: 23.05340003967285px;fill: #282828;font-family: Share-Bold, Share;font-weight: 700">1963</text>
    <g>
      <g style="isolation: isolate">
        <text transform="translate(2617.5874 258.1965)" style="isolation: isolate;font-size: 11.845000267028809px;fill: #fff;font-family: Share-Regular, Share;letter-spacing: -0.00898651837064928em">F</text>
        <text transform="translate(2622.894 258.1965)" style="isolation: isolate;font-size: 11.845000267028809px;fill: #fff;font-family: Share-Regular, Share">undación de la Bodega</text>
      </g>
      <g style="isolation: isolate">
        <text transform="translate(2617.5874 270.1965)" style="isolation: isolate;font-size: 11.845000267028809px;fill: #fff;font-family: Share-Regular, Share">de Ron Monte</text>
        <text transform="translate(2682.2363 270.1965)" style="isolation: isolate;font-size: 11.845000267028809px;fill: #fff;font-family: Share-Regular, Share;letter-spacing: -0.01397444829197296em">r</text>
        <text transform="translate(2686.0625 270.1965)" style="isolation: isolate;font-size: 11.845000267028809px;fill: #fff;font-family: Share-Regular, Share">o que sigue</text>
      </g>
      <g style="isolation: isolate">
        <text transform="translate(2617.5874 282.1965)" style="isolation: isolate;font-size: 11.845000267028809px;fill: #fff;font-family: Share-Regular, Share">p</text>
        <text transform="translate(2623.498 282.1965)" style="isolation: isolate;font-size: 11.845000267028809px;fill: #fff;font-family: Share-Regular, Share;letter-spacing: -0.0150050123253043em">r</text>
        <text transform="translate(2627.3237 282.1965)" style="isolation: isolate;font-size: 11.845000267028809px;fill: #fff;font-family: Share-Regular, Share">oduciendo nuest</text>
        <text transform="translate(2705.3813 282.1965)" style="isolation: isolate;font-size: 11.845000267028809px;fill: #fff;font-family: Share-Regular, Share;letter-spacing: -0.01397444829197296em">r</text>
        <text transform="translate(2709.2075 282.1965)" style="isolation: isolate;font-size: 11.845000267028809px;fill: #fff;font-family: Share-Regular, Share">o </text>
        <text transform="translate(2718.3276 282.1965)" style="isolation: isolate;font-size: 11.845000267028809px;fill: #fff;font-family: Share-Regular, Share;letter-spacing: -0.01397444829197296em">r</text>
        <text transform="translate(2722.1538 282.1965)" style="isolation: isolate;font-size: 11.845000267028809px;fill: #fff;font-family: Share-Regular, Share">on</text>
      </g>
      <g style="isolation: isolate">
        <text transform="translate(2617.5874 294.1965)" style="isolation: isolate;font-size: 11.845000267028809px;fill: #fff;font-family: Share-Regular, Share">hasta h</text>
        <text transform="translate(2652.6123 294.1965)" style="isolation: isolate;font-size: 11.845000267028809px;fill: #fff;font-family: Share-Regular, Share;letter-spacing: -0.0150050123253043em">o</text>
        <text transform="translate(2658.4756 294.1965)" style="isolation: isolate;font-size: 11.845000267028809px;fill: #fff;font-family: Share-Regular, Share">y en día.</text>
      </g>
    </g>
  </g>
  <g id="_2007" data-name="2007" onclick="activateHist('2007')" class="menu">
    <circle cx="2753.8999" cy="493.5" r="28.8" style="fill: #f9ae37"/>
    <g>
      <path d="M2752.2,491.9V395.5h3.4v96.4Z" style="fill: #f9ae37"/>
      <path d="M2751.3,393.8h5.4v99.6h-5.4Zm3.3,3.3h-1.4v93.2h1.4Z" style="fill: #f9ae37"/>
    </g>
    <text transform="translate(2732.2603 501.8728)" style="isolation: isolate;font-size: 23.05340003967285px;fill: #282828;font-family: Share-Bold, Share;font-weight: 700">2007</text>
    <g>
      <g style="isolation: isolate">
        <text transform="translate(2792.78 481.5428)" style="isolation: isolate;font-size: 11.845000267028809px;fill: #fff;font-family: Share-Regular, Share">Joaquín Martín Monte</text>
        <text transform="translate(2894.7996 481.5428)" style="isolation: isolate;font-size: 11.845000267028809px;fill: #fff;font-family: Share-Regular, Share;letter-spacing: -0.0150050123253043em">r</text>
        <text transform="translate(2898.6252 481.5428)" style="isolation: isolate;font-size: 11.845000267028809px;fill: #fff;font-family: Share-Regular, Share">o,</text>
      </g>
      <g style="isolation: isolate">
        <text transform="translate(2792.78 493.5428)" style="isolation: isolate;font-size: 11.845000267028809px;fill: #fff;font-family: Share-Regular, Share">sobrino del fundado</text>
        <text transform="translate(2888.4153 493.5428)" style="isolation: isolate;font-size: 11.845000267028809px;fill: #fff;font-family: Share-Regular, Share;letter-spacing: -0.048972402863905244em">r</text>
        <text transform="translate(2891.8269 493.5428)" style="isolation: isolate;font-size: 11.845000267028809px;fill: #fff;font-family: Share-Regular, Share">, adquie</text>
        <text transform="translate(2929.5286 493.5428)" style="isolation: isolate;font-size: 11.845000267028809px;fill: #fff;font-family: Share-Regular, Share;letter-spacing: -0.01397444829197296em">r</text>
        <text transform="translate(2933.3547 493.5428)" style="isolation: isolate;font-size: 11.845000267028809px;fill: #fff;font-family: Share-Regular, Share">e</text>
      </g>
      <g style="isolation: isolate">
        <text transform="translate(2792.78 505.5428)" style="isolation: isolate;font-size: 11.845000267028809px;fill: #fff;font-family: Share-Regular, Share">la Bodega Ron Monte</text>
        <text transform="translate(2893.3191 505.5428)" style="isolation: isolate;font-size: 11.845000267028809px;fill: #fff;font-family: Share-Regular, Share;letter-spacing: -0.0150050123253043em">r</text>
        <text transform="translate(2897.1448 505.5428)" style="isolation: isolate;font-size: 11.845000267028809px;fill: #fff;font-family: Share-Regular, Share">o.</text>
      </g>
      <g style="isolation: isolate">
        <text transform="translate(2792.78 517.5428)" style="isolation: isolate;font-size: 11.845000267028809px;fill: #fff;font-family: Share-Regular, Share"><tspan xml:space="preserve">  </tspan></text>
      </g>
    </g>
  </g>
  <g id="_2018" data-name="2018">
    <g id="Layer_3" data-name="Layer 3">
      <circle cx="2929.2" cy="273" r="28.8" style="fill: #f9ae37"/>
      <g>
        <path d="M2930.9,274.6V371h-3.4V274.6Z" style="fill: #f9ae37"/>
        <path d="M2931.9,372.6h-5.4V273h5.4Zm-3.4-3.2h1.4V276.2h-1.4Z" style="fill: #f9ae37"/>
      </g>
      <text transform="translate(2907.5757 281.1965)" style="isolation: isolate;font-size: 23.05340003967285px;fill: #282828;font-family: Share-Bold, Share;font-weight: 700">2018</text>
    </g>
    <g>
      <text transform="translate(2968.0935 258.1965)" style="isolation: isolate;font-size: 11.845000267028809px;fill: #fff;font-family: Share-Regular, Share">“Mantener el espíritu del</text>
      <g style="isolation: isolate">
        <text transform="translate(2968.0935 270.1965)" style="isolation: isolate;font-size: 11.845000267028809px;fill: #fff;font-family: Share-Regular, Share">fundador y c</text>
        <text transform="translate(3027.6965 270.1965)" style="isolation: isolate;font-size: 11.845000267028809px;fill: #fff;font-family: Share-Regular, Share;letter-spacing: -0.01397444829197296em">r</text>
        <text transform="translate(3031.5227 270.1965)" style="isolation: isolate;font-size: 11.845000267028809px;fill: #fff;font-family: Share-Regular, Share">e</text>
        <text transform="translate(3037.0662 270.1965)" style="isolation: isolate;font-size: 11.845000267028809px;fill: #fff;font-family: Share-Regular, Share;letter-spacing: -0.009975859842647365em">c</text>
        <text transform="translate(3041.7327 270.1965)" style="isolation: isolate;font-size: 11.845000267028809px;fill: #fff;font-family: Share-Regular, Share">er po</text>
        <text transform="translate(3066.3108 270.1965)" style="isolation: isolate;font-size: 11.845000267028809px;fill: #fff;font-family: Share-Regular, Share;letter-spacing: -0.00898651837064928em">c</text>
        <text transform="translate(3070.9778 270.1965)" style="isolation: isolate;font-size: 11.845000267028809px;fill: #fff;font-family: Share-Regular, Share">o a</text>
      </g>
      <g style="isolation: isolate">
        <text transform="translate(2968.0935 282.1965)" style="isolation: isolate;font-size: 11.845000267028809px;fill: #fff;font-family: Share-Regular, Share">po</text>
        <text transform="translate(2980.0452 282.1965)" style="isolation: isolate;font-size: 11.845000267028809px;fill: #fff;font-family: Share-Regular, Share;letter-spacing: -0.009975859842647365em">c</text>
        <text transform="translate(2984.7117 282.1965)" style="isolation: isolate;font-size: 11.845000267028809px;fill: #fff;font-family: Share-Regular, Share">o, sin pe</text>
        <text transform="translate(3024.7473 282.1965)" style="isolation: isolate;font-size: 11.845000267028809px;fill: #fff;font-family: Share-Regular, Share;letter-spacing: -0.0150050123253043em">r</text>
        <text transform="translate(3028.573 282.1965)" style="isolation: isolate;font-size: 11.845000267028809px;fill: #fff;font-family: Share-Regular, Share">der la calidad</text>
      </g>
      <g style="isolation: isolate">
        <text transform="translate(2968.0935 294.1965)" style="isolation: isolate;font-size: 11.845000267028809px;fill: #fff;font-family: Share-Regular, Share">que nos ha ca</text>
        <text transform="translate(3033.6306 294.1965)" style="isolation: isolate;font-size: 11.845000267028809px;fill: #fff;font-family: Share-Regular, Share;letter-spacing: -0.003998588449325597em">r</text>
        <text transform="translate(3037.5754 294.1965)" style="isolation: isolate;font-size: 11.845000267028809px;fill: #fff;font-family: Share-Regular, Share">acterizado</text>
      </g>
      <text transform="translate(2968.0935 306.1965)" style="isolation: isolate;font-size: 11.845000267028809px;fill: #fff;font-family: Share-Regular, Share">desde el principio”. Esa es</text>
      <g style="isolation: isolate">
        <text transform="translate(2968.0935 318.1965)" style="isolation: isolate;font-size: 11.845000267028809px;fill: #fff;font-family: Share-Regular, Share">nuest</text>
        <text transform="translate(2994.01 318.1965)" style="isolation: isolate;font-size: 11.845000267028809px;fill: #fff;font-family: Share-Regular, Share;letter-spacing: -0.003998588449325597em">r</text>
        <text transform="translate(2997.9543 318.1965)" style="isolation: isolate;font-size: 11.845000267028809px;fill: #fff;font-family: Share-Regular, Share">a prioridad de</text>
      </g>
      <g style="isolation: isolate">
        <text transform="translate(2968.0935 330.1965)" style="isolation: isolate;font-size: 11.845000267028809px;fill: #fff;font-family: Share-Regular, Share">ca</text>
        <text transform="translate(2978.5759 330.1965)" style="isolation: isolate;font-size: 11.845000267028809px;fill: #fff;font-family: Share-Regular, Share;letter-spacing: -0.003998588449325597em">r</text>
        <text transform="translate(2982.5208 330.1965)" style="isolation: isolate;font-size: 11.845000267028809px;fill: #fff;font-family: Share-Regular, Share">a al futu</text>
        <text transform="translate(3022.3308 330.1965)" style="isolation: isolate;font-size: 11.845000267028809px;fill: #fff;font-family: Share-Regular, Share;letter-spacing: -0.01397444829197296em">r</text>
        <text transform="translate(3026.157 330.1965)" style="isolation: isolate;font-size: 11.845000267028809px;fill: #fff;font-family: Share-Regular, Share"><tspan xml:space="preserve">o.  </tspan></text>
      </g>
    </g>
  </g>
</svg>
