<svg xmlns="http://www.w3.org/2000/svg" viewBox="0 0 21.795 21.795">
  <title>Asset 1</title>
  <g id="Layer_2" data-name="Layer 2">
    <g id="Footer">
      <path d="M10.8975,0A10.8975,10.8975,0,1,0,21.795,10.8975,10.8977,10.8977,0,0,0,10.8975,0Zm2.9373,6.7053h-1.56c-.7811,0-.9591.5192-.9591,1.0627V8.8124H13.72l-.3281,2.0851H11.3159v6.29H9.2492V10.8975H7.9708V8.8124H9.2492V7.5513c0-1.7.5084-2.9265,2.3705-2.9265h2.2151Z" style="fill: #b3b3b3"/>
    </g>
  </g>
</svg>
