<svg id="Layer_1" data-name="Layer 1" xmlns="http://www.w3.org/2000/svg" xmlns:xlink="http://www.w3.org/1999/xlink" viewBox="0 0 1133 1197.40002">
  <defs>
    <clipPath id="clip-path">
      <rect x="0.4" width="1133.00002" height="1197.40002" style="fill: none"/>
    </clipPath>
    <clipPath id="clip-path-2">
      <rect x="0.4" y="0.00001" width="1133.00002" height="1197.40002" style="fill: none"/>
    </clipPath>
    <mask id="mask" x="0.29021" y="-0.07345" width="1133.17243" height="1201.79552" maskUnits="userSpaceOnUse">
      <g id="Layer_5" data-name="Layer 5">
        <g id="Layer_5Opacity_Mask" data-name="Layer 5Opacity Mask">
          <g style="clip-path: url(#clip-path)">
            <image id="Layer_5Opacity_Mask-2" data-name="Layer 5Opacity Mask" width="1874" height="1988" transform="translate(0.43658 -0.07345) scale(0.60452)" xlink:href="/static/timeline/DC03714D.jpg" style="isolation: isolate"/>
          </g>
        </g>
      </g>
    </mask>
  </defs>
  <title>Artboard 1</title>
  <g id="Layer_2" data-name="Layer 2">
    <g id="RonDeMotril_Nueva">
      <g id="MateriaPrima">
        <g id="ElPadreDelRon">
          <g id="ElPadreDelRon-2" data-name="ElPadreDelRon">
            <g id="NuevoActualidad_1.psd">
              <g style="clip-path: url(#clip-path-2)">
                <g style="opacity: 0.29019999504089355">
                  <image id="Vector_Smart_Object_copy" data-name="Vector Smart Object copy" width="1436" height="1436" transform="translate(133.3356 124.47591) scale(0.60466)" xlink:href="/static/timeline/DC03714D.png" style="isolation: isolate"/>
                </g>
              </g>
              <g style="clip-path: url(#clip-path-2)">
                <image id="Vector_Smart_Object_copy_2" data-name="Vector Smart Object copy 2" width="1365" height="1367" transform="translate(154.88976 146.03316) scale(0.60409)" xlink:href="/static/timeline/DC03714F.png" style="isolation: isolate"/>
              </g>
              <g style="clip-path: url(#clip-path-2)">
                <g style="mask: url(#mask)">
                  <image id="Layer_5-2" data-name="Layer 5" width="1874" height="1980" transform="translate(0.29021 0.0648) scale(0.60468)" xlink:href="/static/timeline/DC03714B.png" style="isolation: isolate"/>
                </g>
              </g>
            </g>
          </g>
        </g>
      </g>
    </g>
  </g>
  <g>
    <path d="M312.23779,401.88232V335.21338H328.646q10.8186,0,15.75439,4.57519,4.93579,4.57619,4.936,15.10108,0,10.52564-4.936,15.10058-4.93579,4.57545-15.75439,4.5752h-4.95851v27.31689Zm11.4497-36.73779H328.105q5.63452,0,7.708-2.16357,2.07274-2.16359,2.07373-8.09131,0-5.92749-2.07373-8.09131-2.0735-2.16357-7.708-2.16406h-4.41749Z" style="fill: #282828"/>
    <path d="M372.05957,401.88232V335.21338h16.04785q9.87011,0,14.627,4.6206,4.75488,4.62086,4.75585,15.07813,0,13.24951-8.1875,16.82129l9.67579,30.14892H397.52734l-8.09375-27.58691a51.28658,51.28658,0,0,1-5.92431.27v27.31689Zm11.44971-36.73779h4.05713q4.6875,0,6.58007-2.209,1.89552-2.20752,1.89454-8.02344,0-5.81471-1.89454-8.04639-1.89256-2.231-6.58007-2.23144h-4.05713Z" style="fill: #282828"/>
    <path d="M431.88184,401.88232V335.21338h30.65234v9.96191H443.33105V362.395h14.78516v9.96191H443.33105v19.56348H463.7959v9.96191Z" style="fill: #282828"/>
    <path d="M483.54492,384.34717l10.90918-1.57764a14.933,14.933,0,0,0,2.16309,7.48291,5.49655,5.49655,0,0,0,4.68847,2.56934,7.11441,7.11441,0,0,0,4.84571-1.55518,5.693,5.693,0,0,0,1.78027-4.53027,11.47637,11.47637,0,0,0-2.38867-6.874,32.40416,32.40416,0,0,0-5.81543-6.04052q-3.42627-2.77222-6.85156-5.76953a26.32547,26.32547,0,0,1-5.81543-7.438,20.07968,20.07968,0,0,1-2.38867-9.66895q0-7.93359,4.62011-12.28369,4.62012-4.34912,13.09473-4.34961a14.2317,14.2317,0,0,1,10.9541,4.41748,19.92351,19.92351,0,0,1,4.91309,11.71973l-10.86328,1.21728q-.271-3.96606-2.02833-5.67968a5.64457,5.64457,0,0,0-4.05664-1.71289q-5.72607,0-5.72558,6.53613a10.04509,10.04509,0,0,0,2.38965,6.15283,37.01568,37.01568,0,0,0,5.81445,5.90527q3.42627,2.81763,6.8291,5.9502a29.25405,29.25405,0,0,1,5.81543,7.52783,19.24142,19.24142,0,0,1,2.41113,9.39844q0,8.11377-4.93554,12.57666-4.93653,4.46265-13.18457,4.4624a15.3559,15.3559,0,0,1-12.23926-5.29639A20.9349,20.9349,0,0,1,483.54492,384.34717Z" style="fill: #282828"/>
    <path d="M541.1582,401.88232V335.21338h30.65235v9.96191H552.60742V362.395h14.78516v9.96191H552.60742v19.56348h20.46485v9.96191Z" style="fill: #282828"/>
    <path d="M595.7959,401.88232V335.21338h10.59277l13.97363,38.13525h.18067V335.21338h10.32226v66.66894h-9.96191L606.29883,360.231h-.18067v41.65136Z" style="fill: #282828"/>
    <path d="M651.2002,345.17529v-9.96191h33.582v9.96191H673.69336v56.707H662.24414v-56.707Z" style="fill: #282828"/>
  </g>
  <text transform="translate(312.10654 441.73309)" style="font-size: 19.80297088623047px;fill: #282828;font-family: Share-Regular, Share;letter-spacing: -0.008999793883145228em">F<tspan x="8.8916" y="0" style="letter-spacing: -0.003994429065943909em">r</tspan><tspan x="15.50586" y="0" style="letter-spacing: 0.001010935751257409em">ancis</tspan><tspan x="55.9624" y="0" style="letter-spacing: -0.008975136913602364em">c</tspan><tspan x="63.78467" y="0" style="letter-spacing: 0.001010935751257409em">o Monte</tspan><tspan x="127.39063" y="0" style="letter-spacing: -0.014005158700346547em">r</tspan><tspan x="133.80664" y="0" style="letter-spacing: 0.0009862787817145455em">o al</tspan><tspan x="163.90723" y="0" style="letter-spacing: -0.007002579350173273em">w</tspan><tspan x="177.03613" y="0" style="letter-spacing: 0.0009862787817145455em">ays had a clear vision:</tspan><tspan style="letter-spacing: 0.0009862787817145455em"><tspan x="0" y="20">&quot;While othe</tspan><tspan x="89.29004" y="20" style="letter-spacing: -0.003994429065943909em">r</tspan><tspan x="95.9043" y="20">s focus on p</tspan><tspan x="191.49219" y="20" style="letter-spacing: -0.014005158700346547em">r</tspan><tspan x="197.9082" y="20">oducing quantit</tspan><tspan x="323.16016" y="20" style="letter-spacing: -0.043988033664468726em">y</tspan><tspan x="331.45801" y="20">, </tspan><tspan x="341.2002" y="20" style="letter-spacing: -0.008925822974516637em">w</tspan><tspan x="354.29102" y="20">e </tspan><tspan x="368.74609" y="20" style="letter-spacing: -0.008975136913602364em">c</tspan><tspan x="376.56836" y="20">on</tspan><tspan x="396.72754" y="20" style="letter-spacing: -0.008975136913602364em">c</tspan><tspan x="404.5498" y="20">ent</tspan><tspan x="430.25391" y="20" style="letter-spacing: -0.003994429065943909em">r</tspan><tspan x="436.86816" y="20">ate on qualit</tspan><tspan x="538.37695" y="20" style="letter-spacing: -0.044037347603554454em">y</tspan><tspan x="546.67383" y="20">.</tspan></tspan><tspan style="letter-spacing: 0.001010935751257409em"><tspan x="0" y="40" xml:space="preserve"> It ta</tspan><tspan x="38.93164" y="40" style="letter-spacing: -0.014005158700346547em">k</tspan><tspan x="47.84277" y="40">es time to ma</tspan><tspan x="156.14355" y="40" style="letter-spacing: -0.014005158700346547em">k</tspan><tspan x="165.05469" y="40" style="letter-spacing: 0.0009862787817145455em">e g</tspan><tspan x="189.84766" y="40" style="letter-spacing: -0.014005158700346547em">r</tspan><tspan x="196.26367" y="40" style="letter-spacing: 0.0009862787817145455em">eat rum. And </tspan><tspan x="302.44629" y="40" style="letter-spacing: -0.008975136913602364em">w</tspan><tspan x="315.53613" y="40" style="letter-spacing: 0.0009862787817145455em">e ha</tspan><tspan x="349.57617" y="40" style="letter-spacing: -0.013955844761260819em">v</tspan><tspan x="358.44824" y="40" style="letter-spacing: 0.0009862787817145455em">e n</tspan><tspan x="382.94434" y="40" style="letter-spacing: -0.014005158700346547em">ev</tspan><tspan x="400.80566" y="40" style="letter-spacing: 0.0009862787817145455em">er been in a hurr</tspan><tspan x="533.66211" y="40" style="letter-spacing: -0.044037347603554454em">y</tspan><tspan x="541.95898" y="40" style="letter-spacing: 0.0009862787817145455em">.”</tspan><tspan x="0" y="60"> </tspan><tspan x="0" y="80">That is the same purpose upheld </tspan><tspan x="263.1377" y="80" style="letter-spacing: -0.014005158700346547em">b</tspan><tspan x="272.74219" y="80" style="letter-spacing: 0.0009862787817145455em">y Joaquin Martin Monte</tspan><tspan x="458.05566" y="80" style="letter-spacing: -0.014005158700346547em">r</tspan><tspan x="464.47168" y="80" style="letter-spacing: 0.0009862787817145455em">o, di</tspan><tspan x="499.20605" y="80" style="letter-spacing: -0.014005158700346547em">r</tspan><tspan x="505.62207" y="80" style="letter-spacing: 0.0009862787817145455em">ector</tspan></tspan><tspan style="letter-spacing: 0.0009862787817145455em"><tspan x="0" y="100">of Eu</tspan><tspan x="40.59521" y="100" style="letter-spacing: -0.013980501730803683em">r</tspan><tspan x="47.01172" y="100">ope&apos;s last sugar mill and the only suga</tspan><tspan x="355.43848" y="100" style="letter-spacing: -0.014005158700346547em">r</tspan><tspan x="361.85449" y="100">cane mola</tspan><tspan x="443.32227" y="100" style="letter-spacing: -0.008975136913602364em">s</tspan><tspan x="451.10547" y="100" style="letter-spacing: 0.0009369648426288183em">ses distillery</tspan></tspan><tspan style="letter-spacing: 0.001010935751257409em"><tspan x="0" y="120">in all of Eu</tspan><tspan x="85.92383" y="120" style="letter-spacing: -0.014005158700346547em">r</tspan><tspan x="92.33984" y="120" style="letter-spacing: 0.0009862787817145455em">ope and who a</tspan><tspan x="209.73047" y="120" style="letter-spacing: -0.008975136913602364em">c</tspan><tspan x="217.55273" y="120" style="letter-spacing: 0.0009862787817145455em">qui</tspan><tspan x="242.16699" y="120" style="letter-spacing: -0.014005158700346547em">r</tspan><tspan x="248.58301" y="120" style="letter-spacing: 0.0010355927208002727em">ed La Bodega Ron Monte</tspan><tspan x="444.37207" y="120" style="letter-spacing: -0.014005158700346547em">r</tspan><tspan x="450.78809" y="120" style="letter-spacing: 0.0009862787817145455em">o in 200</tspan><tspan x="514.13672" y="120" style="letter-spacing: -0.09897307574505464em">7</tspan><tspan x="521.4834" y="120" style="letter-spacing: 0.0009862787817145455em">.</tspan><tspan x="0" y="140"> </tspan></tspan><tspan style="letter-spacing: 0.0009862787817145455em"><tspan x="0" y="160">His wife, Maria Elena </tspan><tspan x="169.33203" y="160" style="letter-spacing: -0.064009492933274em">T</tspan><tspan x="176.48047" y="160">a</tspan><tspan x="186.02539" y="160" style="letter-spacing: -0.003994429065943909em">r</tspan><tspan x="192.63965" y="160">ga, is in cha</tspan><tspan x="287.96973" y="160" style="letter-spacing: -0.003994429065943909em">r</tspan><tspan x="294.58398" y="160">ge of managing la bodega.</tspan><tspan x="0" y="180">Ron Monte</tspan><tspan x="83.86426" y="180" style="letter-spacing: -0.014005158700346547em">r</tspan><tspan x="90.28027" y="180" style="letter-spacing: 0.0010355927208002727em">o </tspan><tspan x="105.56836" y="180" style="letter-spacing: -0.008975136913602364em">c</tspan><tspan x="113.39063" y="180">ontinues to be a family busine</tspan><tspan x="354.27051" y="180" style="letter-spacing: -0.009024450852688092em">s</tspan><tspan x="362.05273" y="180">s.</tspan></tspan></text>
</svg>
