<svg id="Layer_1" data-name="Layer 1" xmlns="http://www.w3.org/2000/svg" xmlns:xlink="http://www.w3.org/1999/xlink" viewBox="0 0 1133.0355 1197.3987">
  <defs>
    <clipPath id="clip-path">
      <rect x="0.0232" width="1133.0355" height="1197.3987" style="fill: none"/>
    </clipPath>
  </defs>
  <title>Anejamiento2</title>
  <g id="Layer_2" data-name="Layer 2">
    <g id="Layer_13" data-name="Layer 13">
      <g id="RonDeMotril_Nueva" data-name="RonDeMotril Nueva">
        <g id="MateriaPrima">
          <g id="Fermentacion">
            <g id="Fermentacion-2">
              <g id="Destilacion">
                <g id="Anejamiento">
                  <g id="Anejamiento-2">
                    <g id="NuevoCirculoDiagramaAnejamiento.psd">
                      <g style="clip-path: url(#clip-path)">
                        <g>
                          <image id="Vector_Smart_Object_copy_Vector_Smart_Object_copy_2_Group_1_Curves_1" data-name="Vector Smart Object copy Vector Smart Object copy 2 Group 1 Curves 1" width="1436" height="1436" transform="translate(133 124.476) scale(0.6047)" xlink:href="/static/timeline/Anejamiento21.png" style="isolation: isolate"/>
                          <image id="Vector_Smart_Object" data-name="Vector Smart Object" width="744" height="824" transform="translate(498.4695 405.0611) scale(0.6041)" xlink:href="/static/timeline/Anejamiento22.png" style="isolation: isolate"/>
                        </g>
                      </g>
                    </g>
                  </g>
                </g>
              </g>
            </g>
          </g>
        </g>
      </g>
      <g>
        <path d="M276.6164,382.9142l12.1489-66.7793H303.026l12.1494,66.7793H304.2487l-2.0371-14.81H289.58l-2.0376,14.81Zm14.6386-24.789h9.2818l-4.5279-28.67h-.1806Z" style="fill: #282828"/>
        <path d="M335.9543,382.9142V316.1349h10.61l13.9971,38.1983h.1806V316.1349h10.3394v66.7793h-9.9782l-14.6289-41.7207h-.1811v41.7207Zm2.4833-70.7793q2.1219-11.7114,9.5269-11.7129a15.23,15.23,0,0,1,6.0049,1.8926q4.0635,1.9921,5.5537,1.99a3.2341,3.2341,0,0,0,2.6416-.9707,5.18,5.18,0,0,0,.88-3.0918h5.5532q-2.1225,11.4684-9.5269,11.4677a13.6645,13.6645,0,0,1-6.0048-1.99,12.91,12.91,0,0,0-5.4986-1.8926,3.2,3.2,0,0,0-2.7383,1.0293,5.9357,5.9357,0,0,0-.8388,3.2783Z" style="fill: #282828"/>
        <path d="M396.06,382.9142V316.1349h30.7027v9.9786H407.528v17.248h14.81V353.34h-14.81v19.5957h20.4985v9.9785Z" style="fill: #282828"/>
        <path d="M445.7345,383.8166v-9.9785h2.38q3.2331,0,4.6255-1.3321a5.6124,5.6124,0,0,0,1.3926-4.2207v-52.15h11.4686v53.459q0,6.9537-3.5444,10.5879t-12.5293,3.6348Z" style="fill: #282828"/>
        <path d="M486.109,382.9142l12.149-66.7793h14.2607l12.1494,66.7793H513.7414l-2.0371-14.81H499.0732l-2.0376,14.81Zm14.6387-24.789h9.2817l-4.5278-28.67h-.1807Z" style="fill: #282828"/>
        <path d="M544.8146,382.9142V316.1349H560.19l8.1489,39.0567h.1807l8.104-39.0567h15.42v66.7793h-10.34v-52.15h-.2251l-10.2949,52.15h-5.5538l-10.2954-52.15h-.18v52.15Z" style="fill: #282828"/>
        <path d="M617.3815,382.9142V316.1349H628.85v66.7793Z" style="fill: #282828"/>
        <path d="M655.3632,382.9142V316.1349h30.7027v9.9786H666.8317v17.248h14.81V353.34h-14.81v19.5957H687.33v9.9785Z" style="fill: #282828"/>
        <path d="M710.276,382.9142V316.1349h10.61l13.997,38.1983h.1807V316.1349h10.3395v66.7793h-9.9785l-14.629-41.7207h-.1806v41.7207Z" style="fill: #282828"/>
        <path d="M765.9567,326.1135v-9.9786h33.6377v9.9786H788.487v56.8007H777.0187V326.1135Z" style="fill: #282828"/>
        <path d="M820.1925,366.75V332.3439a17.3,17.3,0,0,1,4.4927-12.3027q4.4918-4.81,13.0713-4.8086,8.5773,0,13.0713,4.8086a17.3044,17.3044,0,0,1,4.4921,12.3027V366.75a17.2282,17.2282,0,0,1-4.4921,12.2812q-4.4936,4.7858-13.0713,4.7852-8.58,0-13.0713-4.7852A17.2246,17.2246,0,0,1,820.1925,366.75Zm11.4683-.3164q0,3.8832,1.3769,5.6435t4.7188,1.7608q3.34,0,4.7182-1.7608t1.377-5.6435V332.6154q0-3.8819-1.377-5.6445-1.3785-1.7608-4.7182-1.76-3.3419,0-4.7188,1.76t-1.3769,5.6445Z" style="fill: #282828"/>
      </g>
      <g style="isolation: isolate">
        <text transform="translate(431.6603 290.5201)" style="isolation: isolate;font-size: 15.591090202331543px;fill: #282828;font-family: Share-Regular, Share;letter-spacing: 0.2999948068449087em">ELABOR</text>
        <text transform="translate(505.8419 290.5201)" style="isolation: isolate;font-size: 15.591090202331543px;fill: #282828;font-family: Share-Regular, Share;letter-spacing: 0.27901176888832774em">A</text>
        <text transform="translate(518.0031 290.5201)" style="isolation: isolate;font-size: 15.591090202331543px;fill: #282828;font-family: Share-Regular, Share;letter-spacing: 0.2999948068449087em">CIÓN TRADICIONAL</text>
      </g>
      <g style="isolation: isolate">
        <text transform="translate(276.3218 422.7413)" style="isolation: isolate;font-size: 19.87626075744629px;fill: #282828;font-family: Share-Regular, Share">A dife</text>
        <text transform="translate(321.7984 422.7413)" style="isolation: isolate;font-size: 19.87626075744629px;fill: #282828;font-family: Share-Regular, Share;letter-spacing: -0.014002649487063718em">r</text>
        <text transform="translate(328.2183 422.7413)" style="isolation: isolate;font-size: 19.87626075744629px;fill: #282828;font-family: Share-Regular, Share">encia de ot</text>
        <text transform="translate(416.2085 422.7413)" style="isolation: isolate;font-size: 19.87626075744629px;fill: #282828;font-family: Share-Regular, Share;letter-spacing: -0.014002649487063718em">r</text>
        <text transform="translate(422.6284 422.7413)" style="isolation: isolate;font-size: 19.87626075744629px;fill: #282828;font-family: Share-Regular, Share">os elabo</text>
        <text transform="translate(490.107 422.7413)" style="isolation: isolate;font-size: 19.87626075744629px;fill: #282828;font-family: Share-Regular, Share;letter-spacing: -0.00400426643226559em">r</text>
        <text transform="translate(496.7261 422.7413)" style="isolation: isolate;font-size: 19.87626075744629px;fill: #282828;font-family: Share-Regular, Share">ado</text>
        <text transform="translate(526.4409 422.7413)" style="isolation: isolate;font-size: 19.87626075744629px;fill: #282828;font-family: Share-Regular, Share;letter-spacing: -0.014002649487063718em">r</text>
        <text transform="translate(532.8609 422.7413)" style="isolation: isolate;font-size: 19.87626075744629px;fill: #282828;font-family: Share-Regular, Share">es que utilizan</text>
        <text transform="translate(276.3218 442.8781)" style="isolation: isolate;font-size: 19.87626075744629px;fill: #282828;font-family: Share-Regular, Share">barricas empleadas </text>
        <text transform="translate(435.4488 442.8781)" style="isolation: isolate;font-size: 19.87626075744629px;fill: #282828;font-family: Share-Regular, Share;letter-spacing: -0.00999838305479813em">c</text>
        <text transform="translate(443.2798 442.8781)" style="isolation: isolate;font-size: 19.87626075744629px;fill: #282828;font-family: Share-Regular, Share">on anterioridad pa</text>
        <text transform="translate(591.4947 442.8781)" style="isolation: isolate;font-size: 19.87626075744629px;fill: #282828;font-family: Share-Regular, Share;letter-spacing: -0.00400426643226559em">r</text>
        <text transform="translate(598.1138 442.8781)" style="isolation: isolate;font-size: 19.87626075744629px;fill: #282828;font-family: Share-Regular, Share">a el</text>
        <text transform="translate(276.3218 463.0139)" style="isolation: isolate;font-size: 19.87626075744629px;fill: #282828;font-family: Share-Regular, Share">e</text>
        <text transform="translate(285.6236 463.0139)" style="isolation: isolate;font-size: 19.87626075744629px;fill: #282828;font-family: Share-Regular, Share;letter-spacing: -0.00999838305479813em">n</text>
        <text transform="translate(295.482 463.0139)" style="isolation: isolate;font-size: 19.87626075744629px;fill: #282828;font-family: Share-Regular, Share;letter-spacing: -0.014002649487063718em">v</text>
        <text transform="translate(304.3667 463.0139)" style="isolation: isolate;font-size: 19.87626075744629px;fill: #282828;font-family: Share-Regular, Share">ejecimiento de whis</text>
        <text transform="translate(461.8833 463.0139)" style="isolation: isolate;font-size: 19.87626075744629px;fill: #282828;font-family: Share-Regular, Share;letter-spacing: -0.008991174933798808em">k</text>
        <text transform="translate(470.9077 463.0139)" style="isolation: isolate;font-size: 19.87626075744629px;fill: #282828;font-family: Share-Regular, Share">y o bourbon,</text>
        <text transform="translate(276.3218 483.1505)" style="isolation: isolate;font-size: 19.87626075744629px;fill: #282828;font-family: Share-Regular, Share">en Bodega Ron Monte</text>
        <text transform="translate(449.5611 483.1505)" style="isolation: isolate;font-size: 19.87626075744629px;fill: #282828;font-family: Share-Regular, Share;letter-spacing: -0.014002649487063718em">r</text>
        <text transform="translate(455.981 483.1505)" style="isolation: isolate;font-size: 19.87626075744629px;fill: #282828;font-family: Share-Regular, Share">o los al</text>
        <text transform="translate(514.6743 483.1505)" style="isolation: isolate;font-size: 19.87626075744629px;fill: #282828;font-family: Share-Regular, Share;letter-spacing: -0.00999838305479813em">c</text>
        <text transform="translate(522.5054 483.1505)" style="isolation: isolate;font-size: 19.87626075744629px;fill: #282828;font-family: Share-Regular, Share">oholes</text>
        <text transform="translate(276.3218 503.2863)" style="isolation: isolate;font-size: 19.87626075744629px;fill: #282828;font-family: Share-Regular, Share">obtenidos se e</text>
        <text transform="translate(392.0591 503.2863)" style="isolation: isolate;font-size: 19.87626075744629px;fill: #282828;font-family: Share-Regular, Share;letter-spacing: -0.008991174933798808em">n</text>
        <text transform="translate(401.9185 503.2863)" style="isolation: isolate;font-size: 19.87626075744629px;fill: #282828;font-family: Share-Regular, Share;letter-spacing: -0.015009857608063039em">v</text>
        <text transform="translate(410.8023 503.2863)" style="isolation: isolate;font-size: 19.87626075744629px;fill: #282828;font-family: Share-Regular, Share">eje</text>
        <text transform="translate(434.2759 503.2863)" style="isolation: isolate;font-size: 19.87626075744629px;fill: #282828;font-family: Share-Regular, Share;letter-spacing: -0.00999838305479813em">c</text>
        <text transform="translate(442.107 503.2863)" style="isolation: isolate;font-size: 19.87626075744629px;fill: #282828;font-family: Share-Regular, Share">en en barricas ví</text>
        <text transform="translate(573.7447 503.2863)" style="isolation: isolate;font-size: 19.87626075744629px;fill: #282828;font-family: Share-Regular, Share;letter-spacing: -0.00400426643226559em">r</text>
        <text transform="translate(580.3638 503.2863)" style="isolation: isolate;font-size: 19.87626075744629px;fill: #282828;font-family: Share-Regular, Share">genes</text>
        <text transform="translate(276.3218 523.423)" style="isolation: isolate;font-size: 19.87626075744629px;fill: #282828;font-family: Share-Regular, Share">de </text>
        <text transform="translate(300.8091 523.423)" style="isolation: isolate;font-size: 19.87626075744629px;fill: #282828;font-family: Share-Regular, Share;letter-spacing: -0.014002649487063718em">r</text>
        <text transform="translate(307.229 523.423)" style="isolation: isolate;font-size: 19.87626075744629px;fill: #282828;font-family: Share-Regular, Share">oble americano de 500L que aportan</text>
        <text transform="translate(276.3218 543.5587)" style="isolation: isolate;font-size: 19.87626075744629px;fill: #282828;font-family: Share-Regular, Share">al </text>
        <text transform="translate(296.3169 543.5587)" style="isolation: isolate;font-size: 19.87626075744629px;fill: #282828;font-family: Share-Regular, Share;letter-spacing: -0.014002649487063718em">r</text>
        <text transform="translate(302.7368 543.5587)" style="isolation: isolate;font-size: 19.87626075744629px;fill: #282828;font-family: Share-Regular, Share">on un sabor úni</text>
        <text transform="translate(427.2603 543.5587)" style="isolation: isolate;font-size: 19.87626075744629px;fill: #282828;font-family: Share-Regular, Share;letter-spacing: -0.00999838305479813em">c</text>
        <text transform="translate(435.0913 543.5587)" style="isolation: isolate;font-size: 19.87626075744629px;fill: #282828;font-family: Share-Regular, Share">o.</text>
      </g>
      <g>
        <path d="M277.3312,740.8433V666.582q0-22.0989,9.0079-32.26,9.0074-10.1585,28.7519-10.16,19.7413,0,28.7512,10.16,9.0075,10.1609,9.0079,32.26v74.2613q0,22.1013-9.0079,32.26-9.01,10.1608-28.7512,10.16-19.7448,0-28.7519-10.16Q277.33,762.9455,277.3312,740.8433Zm25.3477,6.5074q0,14.7559,12.4121,14.8077,12.4119.0543,12.4114-14.8077v-87.38q0-14.7537-12.4114-14.756-12.4117,0-12.4121,14.756Z" style="fill: #282828"/>
        <path d="M360.6844,743.7768V724.0851l45.0388-97.8281H431.49v97.8281h14.2447v19.6918H431.49v37.3922H407.0846V743.7768Zm20.4242-19.6917h26.3952V663.6494h-.4192Z" style="fill: #282828"/>
      </g>
    </g>
  </g>
</svg>
