<svg id="Layer_1" data-name="Layer 1" xmlns="http://www.w3.org/2000/svg" xmlns:xlink="http://www.w3.org/1999/xlink" viewBox="0 0 1133.03552 1197.39868">
  <defs>
    <clipPath id="clip-path">
      <rect x="2" y="0.39868" width="1133.03546" height="1197.39868" style="fill: none"/>
    </clipPath>
    <mask id="mask" x="2" y="0.39868" width="1133.03546" height="1245.97469" maskUnits="userSpaceOnUse">
      <g id="Layer_5_copyOpacity_Mask" data-name="Layer 5 copyOpacity Mask">
        <image id="Layer_5_copyOpacity_Mask-2" data-name="Layer 5 copyOpacity Mask" width="1866" height="2052" transform="translate(2 0.39868) scale(0.6072)" xlink:href="/static/timeline/Soleras3.png"/>
      </g>
    </mask>
  </defs>
  <title>Soleras</title>
  <g id="Soleras">
    <g id="RonDeMotril_Nueva">
      <g id="MateriaPrima">
        <g id="Fermentacion">
          <g id="Fermentacion-2" data-name="Fermentacion">
            <g id="Destilacion">
              <g id="Anejamiento">
                <g id="Anejamiento-2" data-name="Anejamiento">
                  <g style="clip-path: url(#clip-path)">
                    <image id="Vector_Smart_Object_copy_2" data-name="Vector Smart Object copy 2" width="1359" height="1359" transform="translate(156.22884 146.73392) scale(0.6072)" xlink:href="/static/timeline/Soleras_NoText.png"/>
                  </g>
                </g>
              </g>
            </g>
          </g>
        </g>
      </g>
    </g>
    <g>
      <path d="M326.22461,353.66144l10.92578-1.58007q.36181,4.92188,2.168,7.49511a5.50362,5.50362,0,0,0,4.69531,2.57422,7.12133,7.12133,0,0,0,4.85352-1.55859,5.69849,5.69849,0,0,0,1.78418-4.53711,11.49278,11.49278,0,0,0-2.39355-6.88672,32.42091,32.42091,0,0,0-5.82422-6.04883q-3.43214-2.77734-6.86328-5.78027a26.33281,26.33281,0,0,1-5.82422-7.4502,20.10639,20.10639,0,0,1-2.39258-9.68457q0-7.94677,4.62793-12.30371,4.62744-4.35645,13.11621-4.35742a14.25462,14.25462,0,0,1,10.97168,4.42578,19.95685,19.95685,0,0,1,4.92187,11.73828l-10.88183,1.21973q-.271-3.97266-2.03223-5.68945a5.65343,5.65343,0,0,0-4.06348-1.71582q-5.73486,0-5.73437,6.54687a10.06949,10.06949,0,0,0,2.39355,6.16406,37.07311,37.07311,0,0,0,5.82422,5.91407q3.43066,2.82275,6.84082,5.96a29.31612,29.31612,0,0,1,5.82422,7.54,19.2733,19.2733,0,0,1,2.416,9.41406q0,8.127-4.94434,12.59765-4.94385,4.47071-13.207,4.46973a15.37935,15.37935,0,0,1-12.25879-5.30566A20.96563,20.96563,0,0,1,326.22461,353.66144Z" style="fill: #282828"/>
      <path d="M384.11719,355.06086v-34.4043a17.30351,17.30351,0,0,1,4.49316-12.30469q4.49121-4.80761,13.07129-4.80859,8.57667,0,13.07129,4.80859a17.31138,17.31138,0,0,1,4.49219,12.30469v34.4043a17.22442,17.22442,0,0,1-4.49219,12.28125q-4.49413,4.7871-13.07129,4.78613-8.57958,0-13.07129-4.78613A17.21662,17.21662,0,0,1,384.11719,355.06086Zm11.46875-.31543q0,3.88331,1.377,5.64355,1.377,1.76074,4.71875,1.76172,3.33985,0,4.71778-1.76172,1.377-1.76074,1.37695-5.64355V320.92707q0-3.88331-1.37695-5.64356-1.37842-1.76073-4.71778-1.76171-3.34277,0-4.71875,1.76171-1.37841,1.76075-1.377,5.64356Z" style="fill: #282828"/>
      <path d="M443.68067,371.22492V304.4466h11.46777v56.7998h18.01563v9.97852Z" style="fill: #282828"/>
      <path d="M494.03321,371.22492V304.4466h30.70312v9.97852H505.502v17.24707h14.80957v9.97851H505.502v19.5957H526v9.97852Z" style="fill: #282828"/>
      <path d="M548.94629,371.22492V304.4466h16.07422q9.8877,0,14.65137,4.62793,4.76367,4.62891,4.76367,15.10352,0,13.27148-8.20117,16.8496l9.6914,30.19727H574.457l-8.10839-27.63281a51.053,51.053,0,0,1-5.9336.27148v27.36133ZM560.415,334.42707h4.06348q4.69482,0,6.5918-2.21192t1.89648-8.0371q0-5.82423-1.89648-8.05958-1.89552-2.23534-6.5918-2.23535H560.415Z" style="fill: #282828"/>
      <path d="M604.627,371.22492l12.14941-66.77832h14.26074l12.14942,66.77832H632.25977l-2.03711-14.80859H617.59082l-2.03711,14.80859Zm14.63867-24.78711h9.28222l-4.52832-28.67187h-.18066Z" style="fill: #282828"/>
      <path d="M660.98438,353.66144l10.92676-1.58007q.36034,4.92188,2.167,7.49511a5.50641,5.50641,0,0,0,4.69629,2.57422,7.123,7.123,0,0,0,4.85351-1.55859,5.70112,5.70112,0,0,0,1.78321-4.53711,11.498,11.498,0,0,0-2.39258-6.88672,32.39578,32.39578,0,0,0-5.8252-6.04883q-3.43066-2.77734-6.8623-5.78027a26.3532,26.3532,0,0,1-5.8252-7.4502,20.1065,20.1065,0,0,1-2.39258-9.68457q0-7.94677,4.62793-12.30371,4.62744-4.35645,13.11621-4.35742a14.25459,14.25459,0,0,1,10.97168,4.42578,19.95074,19.95074,0,0,1,4.92188,11.73828l-10.88184,1.21973q-.271-3.97266-2.03125-5.68945a5.65341,5.65341,0,0,0-4.06347-1.71582q-5.73487,0-5.73438,6.54687a10.068,10.068,0,0,0,2.39258,6.16406,37.12181,37.12181,0,0,0,5.8252,5.91407q3.43065,2.82275,6.83984,5.96a29.34051,29.34051,0,0,1,5.82519,7.54,19.2829,19.2829,0,0,1,2.415,9.41406q0,8.127-4.94433,12.59765-4.94385,4.47071-13.20606,4.46973a15.378,15.378,0,0,1-12.25879-5.30566A20.96081,20.96081,0,0,1,660.98438,353.66144Z" style="fill: #282828"/>
      <path d="M748.59571,304.4466h11.46875l8.082,25.46582h.18066l7.7207-25.46582H787.5166L773.791,343.50226v27.72266H762.32227V343.50226Z" style="fill: #282828"/>
      <path d="M329.2041,443.06086v-34.4043a17.30348,17.30348,0,0,1,4.49317-12.30469q4.49121-4.80761,13.07129-4.80859,8.21631,0,12.61914,5.16992,4.40186,5.17091,4.40234,13.11719v4.9209H352.32129V409.5589q0-3.97265-1.58008-6.00488a4.84053,4.84053,0,0,0-3.97265-2.03222q-3.34278,0-4.71875,1.76171-1.37842,1.76075-1.377,5.64356v33.81836q0,3.88331,1.377,5.64355,1.377,1.76074,4.71875,1.76172,3.06885,0,4.31152-1.64844a8.44775,8.44775,0,0,0,1.24121-5.08007v-8.03711H363.79v7.67578a17.42836,17.42836,0,0,1-4.40234,12.28125q-4.40186,4.7871-12.61914,4.78613-8.57959,0-13.07129-4.78613A17.21658,17.21658,0,0,1,329.2041,443.06086Z" style="fill: #282828"/>
      <path d="M389.30957,459.22492V392.4466h16.07422q9.8877,0,14.65137,4.62793,4.76367,4.62891,4.76367,15.10352,0,13.27148-8.20117,16.8496l9.69141,30.19727H414.82032l-8.1084-27.63281a51.05287,51.05287,0,0,1-5.9336.27148v27.36133Zm11.46875-36.79785h4.06348q4.69482,0,6.5918-2.21192t1.89648-8.0371q0-5.82423-1.89648-8.05958-1.89552-2.23534-6.5918-2.23535h-4.06348Z" style="fill: #282828"/>
      <path d="M450.99512,459.22492V392.4466h11.46875v66.77832Z" style="fill: #282828"/>
      <path d="M484.55176,459.22492,496.7002,392.4466h14.26074l12.14941,66.77832H512.1836l-2.03711-14.80859H497.51563l-2.03809,14.80859Zm14.63867-24.78711h9.28125l-4.52734-28.67187h-.18067Z" style="fill: #282828"/>
      <path d="M543.88965,459.22492V392.4466h17.02149q18.10546,0,18.10546,20.18262v26.459q0,20.13867-18.10546,20.13672Zm11.46777-9.43555h3.97364q4.60547,0,6.41113-2.03222,1.80615-2.03175,1.80664-7.31446V411.2298q0-5.28369-1.80664-7.31543-1.80615-2.03027-6.41113-2.03125h-3.97364Z" style="fill: #282828"/>
      <path d="M603.99512,459.22492V392.4466h30.70215v9.97852H615.46289v17.24707h14.80957v9.97851H615.46289v19.5957h20.499v9.97852Z" style="fill: #282828"/>
      <path d="M658.90723,459.22492V392.4466h16.07422q9.88769,0,14.65137,4.62793,4.76367,4.62891,4.76367,15.10352,0,13.27148-8.20117,16.8496l9.6914,30.19727H684.418l-8.1084-27.63281a51.0528,51.0528,0,0,1-5.93359.27148v27.36133ZM670.376,422.42707h4.06348q4.69482,0,6.59179-2.21192t1.89649-8.0371q0-5.82423-1.89649-8.05958-1.89551-2.23534-6.59179-2.23535H670.376Z" style="fill: #282828"/>
      <path d="M714.58789,459.22492l12.14942-66.77832h14.26074l12.14941,66.77832H742.22071l-2.03711-14.80859H727.55176l-2.03711,14.80859Zm14.63868-24.78711h9.28222l-4.52832-28.67187h-.18066Z" style="fill: #282828"/>
      <path d="M770.94629,441.66144l10.92578-1.58007q.36182,4.92188,2.168,7.49511a5.50362,5.50362,0,0,0,4.69531,2.57422,7.12133,7.12133,0,0,0,4.85352-1.55859,5.69849,5.69849,0,0,0,1.78418-4.53711,11.49273,11.49273,0,0,0-2.39356-6.88672,32.42053,32.42053,0,0,0-5.82421-6.04883q-3.43213-2.77734-6.86329-5.78027a26.333,26.333,0,0,1-5.82421-7.4502,20.10639,20.10639,0,0,1-2.39258-9.68457q0-7.94677,4.62793-12.30371,4.62744-4.35645,13.11621-4.35742a14.25462,14.25462,0,0,1,10.97168,4.42578,19.95685,19.95685,0,0,1,4.92187,11.73828l-10.88183,1.21973q-.271-3.97266-2.03223-5.68945a5.65343,5.65343,0,0,0-4.06348-1.71582q-5.73486,0-5.73437,6.54687a10.06949,10.06949,0,0,0,2.39355,6.16406,37.07311,37.07311,0,0,0,5.82422,5.91407q3.43066,2.82275,6.84082,5.96a29.31612,29.31612,0,0,1,5.82422,7.54,19.2733,19.2733,0,0,1,2.416,9.41406q0,8.127-4.94434,12.59765-4.94385,4.47071-13.207,4.46973a15.37935,15.37935,0,0,1-12.25879-5.30566A20.96563,20.96563,0,0,1,770.94629,441.66144Z" style="fill: #282828"/>
    </g>
    <text transform="translate(330.8006 278.79938)" style="font-size: 15.591090202331543px;fill: #282828;font-family: Share-Regular, Share;letter-spacing: 0.3000261248120081em">ELABOR<tspan x="74.18164" y="0" style="letter-spacing: 0.2799826258684084em">A</tspan><tspan x="86.34277" y="0">CIÓN TRADICIONAL </tspan></text>
    <text transform="translate(329.23718 499.52332)" style="font-size: 19.87626075744629px;fill: #282828;font-family: Share-Regular, Share">Cuando se <tspan x="85.56543" y="0" style="letter-spacing: -0.014985291556331349em">e</tspan><tspan x="94.56934" y="0">xt</tspan><tspan x="110.17188" y="0" style="letter-spacing: -0.004962342449801528em">r</tspan><tspan x="116.79102" y="0">ae parte del</tspan><tspan x="0" y="20.13672" style="letter-spacing: -0.014985291556331349em">r</tspan><tspan x="6.41992" y="20.13672">on de la sole</tspan><tspan x="108.95996" y="20.13672" style="letter-spacing: -0.004962342449801528em">r</tspan><tspan x="115.5791" y="20.13672">a, se </tspan><tspan x="157.33789" y="20.13672" style="letter-spacing: -0.014985291556331349em">r</tspan><tspan x="163.75781" y="20.13672">ellena</tspan><tspan x="0" y="40.27246" style="letter-spacing: -0.01002294910652982em">c</tspan><tspan x="7.83105" y="40.27246">on igual cantidad de </tspan><tspan x="176.32031" y="40.27246" style="letter-spacing: -0.014985291556331349em">r</tspan><tspan x="182.74023" y="40.27246">on</tspan><tspan x="0" y="60.40918">de la escala o fila superio</tspan><tspan x="203.58887" y="60.40918" style="letter-spacing: -0.049967349222258955em">r</tspan><tspan x="209.31348" y="60.40918">,</tspan><tspan x="0" y="80.54492">denominada 1</tspan><tspan x="112.59766" y="80.54492" style="letter-spacing: -0.00501147455326491em">r</tspan><tspan x="119.21582" y="80.54492">a criade</tspan><tspan x="182.44141" y="80.54492" style="letter-spacing: -0.004962342449801528em">r</tspan><tspan x="189.06055" y="80.54492" style="letter-spacing: -0.00004913210346338147em">a,</tspan><tspan x="0" y="100.68164">y esta, a su </tspan><tspan x="94.9873" y="100.68164" style="letter-spacing: -0.01503442365979473em">v</tspan><tspan x="103.87109" y="100.68164">ez, se </tspan><tspan x="153.38184" y="100.68164" style="letter-spacing: -0.014985291556331349em">r</tspan><tspan x="159.80176" y="100.68164" style="letter-spacing: 0.00004913210346338147em">ellena</tspan><tspan x="0" y="120.81738" style="letter-spacing: -0.01002294910652982em">c</tspan><tspan x="7.83105" y="120.81738">on la siguiente, 2da criade</tspan><tspan x="218.39648" y="120.81738" style="letter-spacing: -0.004962342449801528em">r</tspan><tspan x="225.01563" y="120.81738">a,</tspan><tspan x="0" y="140.9541">y así su</tspan><tspan x="59.70703" y="140.9541" style="letter-spacing: -0.01002294910652982em">c</tspan><tspan x="67.53809" y="140.9541" style="letter-spacing: 0.00004913210346338147em">esivamente.</tspan><tspan x="0" y="181.22656">Después del tiempo</tspan><tspan x="0" y="201.36328">ne</tspan><tspan x="19.35938" y="201.36328" style="letter-spacing: -0.01002294910652982em">c</tspan><tspan x="27.19043" y="201.36328">esario pa</tspan><tspan x="100.41309" y="201.36328" style="letter-spacing: -0.004962342449801528em">r</tspan><tspan x="107.03223" y="201.36328" style="letter-spacing: -0.00004913210346338147em">a obtener las</tspan><tspan x="0" y="221.49902">p</tspan><tspan x="9.91797" y="221.49902" style="letter-spacing: -0.014985291556331349em">r</tspan><tspan x="16.33789" y="221.49902">opiedades deseadas pa</tspan><tspan x="201.00488" y="221.49902" style="letter-spacing: -0.004962342449801528em">r</tspan><tspan x="207.62402" y="221.49902">a</tspan><tspan x="0" y="241.63574">cada tipo de </tspan><tspan x="103.29492" y="241.63574" style="letter-spacing: -0.014985291556331349em">r</tspan><tspan x="109.71484" y="241.63574">on, se p</tspan><tspan x="172.02637" y="241.63574" style="letter-spacing: -0.014985291556331349em">r</tspan><tspan x="178.44629" y="241.63574">o</tspan><tspan x="188.58301" y="241.63574" style="letter-spacing: -0.01002294910652982em">c</tspan><tspan x="196.41406" y="241.63574">ede</tspan><tspan x="0" y="261.77148">a las mezclas y nos</tspan><tspan x="0" y="281.9082">asegu</tspan><tspan x="46.9668" y="281.9082" style="letter-spacing: -0.004962342449801528em">r</tspan><tspan x="53.58594" y="281.9082" style="letter-spacing: -0.00004913210346338147em">amos que el </tspan><tspan x="154.93359" y="281.9082" style="letter-spacing: -0.014985291556331349em">r</tspan><tspan x="161.35352" y="281.9082">on</tspan><tspan x="0" y="302.04395">esté en su punto.</tspan></text>
    <text transform="translate(613.62878 499.52332)" style="font-size: 19.87626075744629px;fill: #282828;font-family: Share-Regular, Share">Una de las cualidades<tspan x="0" y="20.13672">p</tspan><tspan x="9.91797" y="20.13672" style="letter-spacing: -0.004962342449801528em">r</tspan><tspan x="16.53711" y="20.13672">acticas del sistema de</tspan><tspan x="0" y="40.27246">criade</tspan><tspan x="48.49707" y="40.27246" style="letter-spacing: -0.004962342449801528em">r</tspan><tspan x="55.11621" y="40.27246">as y sole</tspan><tspan x="124.90039" y="40.27246" style="letter-spacing: -0.004962342449801528em">r</tspan><tspan x="131.51953" y="40.27246">as es que</tspan><tspan x="0" y="60.40918">si se </tspan><tspan x="40.4873" y="60.40918" style="letter-spacing: -0.014985291556331349em">e</tspan><tspan x="49.49121" y="60.40918" style="letter-spacing: -0.00004913210346338147em">xt</tspan><tspan x="65.09375" y="60.40918" style="letter-spacing: -0.00501147455326491em">r</tspan><tspan x="71.71191" y="60.40918">ae una parte del</tspan><tspan x="0" y="80.54492" style="letter-spacing: -0.01002294910652982em">c</tspan><tspan x="7.83105" y="80.54492">ontenido de un barril, y</tspan><tspan x="0" y="100.68164">dicho </tspan><tspan x="48.2793" y="100.68164" style="letter-spacing: -0.01503442365979473em">v</tspan><tspan x="57.16309" y="100.68164">olumen se sustit</tspan><tspan x="187.19238" y="100.68164" style="letter-spacing: -0.009973817003066439em">u</tspan><tspan x="196.75293" y="100.68164" style="letter-spacing: -0.01503442365979473em">y</tspan><tspan x="205.65723" y="100.68164">e </tspan><tspan x="0" y="120.81738">por ot</tspan><tspan x="48.45801" y="120.81738" style="letter-spacing: -0.014985291556331349em">r</tspan><tspan x="54.87793" y="120.81738">o mas j</tspan><tspan x="112.2793" y="120.81738" style="letter-spacing: -0.014985291556331349em">ov</tspan><tspan x="131.00293" y="120.81738">en y del</tspan><tspan x="0" y="140.9541">mismo tipo, este adquie</tspan><tspan x="189.89453" y="140.9541" style="letter-spacing: -0.014936159452867966em">r</tspan><tspan x="196.31543" y="140.9541">e</tspan><tspan x="0" y="161.08984">po</tspan><tspan x="20.05469" y="161.08984" style="letter-spacing: -0.01002294910652982em">c</tspan><tspan x="27.88574" y="161.08984">o a po</tspan><tspan x="77.97363" y="161.08984" style="letter-spacing: -0.01002294910652982em">c</tspan><tspan x="85.80469" y="161.08984">o la calidad del</tspan><tspan x="0" y="181.22656">mas viejo. Esto es lo que</tspan><tspan x="0" y="201.36328">ha</tspan><tspan x="19.61719" y="201.36328" style="letter-spacing: -0.009973817003066439em">c</tspan><tspan x="27.44922" y="201.36328">e posible el sistema</tspan><tspan x="0" y="221.49902">de sole</tspan><tspan x="57.18262" y="221.49902" style="letter-spacing: -0.004962342449801528em">r</tspan><tspan x="63.80176" y="221.49902">as.</tspan></text>
    <g>
      <path d="M620.98731,870.04133V799.012q0-21.13623,8.61621-30.85645,8.61474-9.7163,27.5-9.71777,18.88184,0,27.5,9.71777,8.61474,9.71925,8.61523,30.85645v71.0293q0,21.13915-8.61523,30.85644-8.61768,9.71778-27.5,9.71778-18.88623,0-27.5-9.71778Q620.98584,891.18146,620.98731,870.04133Zm24.24414,6.22363q0,14.11377,11.87207,14.16309,11.87109.05273,11.87109-14.16309V792.68781q0-14.11085-11.87109-14.11328-11.87256,0-11.87207,14.11328Z" style="fill: #e5c86a"/>
      <path d="M707.02442,877.054V865.73371h22.9414v11.87305q0,5.88867,3.06641,9.37988a10.3606,10.3606,0,0,0,8.19531,3.49219q12.58008,0,12.582-18.00489V838.86457q0-6.80274-2.96972-10.15332a9.81348,9.81348,0,0,0-7.7002-3.35156q-9.65185,0-13.77441,11.2207H709.8291q2.40528-51.69434,2.4043-76.13867h61.8125l-.80078,20.93847h-40.875l-1.40234,32.0586.40039.40039q4.52783-5.30859,8.75488-6.96289a30.23388,30.23388,0,0,1,10.86914-1.65332q27.06006,0,27.06152,38.97168v20.53711q0,23.84472-8.12793,34.86328-8.12549,11.02147-26.38379,11.02051-16.60986,0-26.56347-8.06543Q707.022,894.48762,707.02442,877.054Z" style="fill: #e5c86a"/>
    </g>
  </g>
</svg>
