<?xml version="1.0" encoding="utf-8"?>
<!-- Generator: Adobe Illustrator 22.0.0, SVG Export Plug-In . SVG Version: 6.00 Build 0)  -->
<svg version="1.1" id="Layer_1" xmlns="http://www.w3.org/2000/svg" xmlns:xlink="http://www.w3.org/1999/xlink" x="0px" y="0px"
	 viewBox="0 0 1920 1080" style="enable-background:new 0 0 1920 1080;" xml:space="preserve">
<style type="text/css">
	.st0{fill:#9AC0D1;}
	.st1{fill:#FFFFFF;}
	.st2{font-family:'FjallaOne-Regular';}
	.st3{font-size:121.4655px;}
	.st4{letter-spacing:1;}
	.st5{font-family:'Share-Regular';}
	.st6{font-size:37.9662px;}
</style>
<rect x="-2.3" class="st0" width="1920.8" height="857"/>
<text transform="matrix(1 0 0 1 359.0449 185.9663)"><tspan x="0" y="0" class="st1 st2 st3 st4">LLEGAN COMO VISITANTES</tspan><tspan x="0" y="137.5" class="st1 st2 st3 st4">Y SE VAN COMO FIELES</tspan><tspan x="0" y="275.1" class="st1 st2 st3 st4">CONSUMIDORES.</tspan></text>
<text transform="matrix(1 0 0 1 1146.4033 387.2876)"><tspan x="0" y="0" class="st1 st5 st6">La bodega ofrece visitas</tspan><tspan x="0" y="45" class="st1 st5 st6">guiadas en puertas abiertas</tspan><tspan x="0" y="90" class="st1 st5 st6">todos los martes a sábados</tspan><tspan x="0" y="135" class="st1 st5 st6">del año a las 12:00h en</tspan><tspan x="0" y="180" class="st1 st5 st6">Español y a las 13:00h en</tspan><tspan x="0" y="225" class="st1 st5 st6">Inglés. Las visitas son gratuitas.</tspan><tspan x="0" y="270" class="st1 st5 st6">Para otras fechas y grupos,</tspan><tspan x="0" y="315" class="st1 st5 st6">Contáctanos.</tspan><tspan x="0" y="360" class="st1 st5 st6"> </tspan></text>
<g id="BlueBodegaIsolada_32_">
	<g id="BlueBodegaIsolada_33_">
		<g id="BlueBodegaIsolada_34_">
			
				<image style="overflow:visible;" width="1717" height="478" id="BlueBodegaIsolada_35_" xlink:href="E1B7CB79.png"  transform="matrix(1.1305 0 0 1.1305 -17 598.4409)">
			</image>
		</g>
	</g>
</g>
</svg>
