<svg xmlns="http://www.w3.org/2000/svg" xmlns:xlink="http://www.w3.org/1999/xlink" viewBox="0 0 1133.0355 1197.3987">
  <title>Destialcion</title>
  <g id="Layer_2" data-name="Layer 2">
    <g id="Layer_13" data-name="Layer 13">
      <g id="Blending">
        <g id="RonDeMotril_Nueva">
          <g id="MateriaPrima">
            <g id="Fermentacion">
              <g id="Fermentacion-2" data-name="Fermentacion">
                <g id="Destilacion">
                  <g id="Anejamiento">
                    <g id="Anejamiento-2" data-name="Anejamiento">
                      <g id="SolerasyCriaderas">
                        <g id="SolerasyCriaderas-2" data-name="SolerasyCriaderas">
                          <g id="SolerasyCriaderas-3" data-name="SolerasyCriaderas">
                            <g id="SolerasyCriaderas-4" data-name="SolerasyCriaderas">
                              <g id="SolerasyCriaderas-5" data-name="SolerasyCriaderas">
                                <g id="SolerasyCriaderas-6" data-name="SolerasyCriaderas">
                                  <g id="SolerasyCriaderas-7" data-name="SolerasyCriaderas">
                                    <g id="Blending-2" data-name="Blending">
                                      <image id="Blending-3" data-name="Blending" width="1866" height="1972" transform="scale(0.6072)" xlink:href="/static/timeline/Destialcion1.png"/>
                                    </g>
                                  </g>
                                </g>
                              </g>
                            </g>
                          </g>
                        </g>
                      </g>
                    </g>
                  </g>
                </g>
              </g>
            </g>
          </g>
        </g>
        <g>
          <path d="M349.2669,441.9142V375.1359h17.0215q17.7451,0,17.7442,17.6787a18.3534,18.3534,0,0,1-1.9864,8.4864,11.1314,11.1314,0,0,1-5.96,5.4609q9.2548,4.0708,9.2558,15.8281,0,8.8946-4.3564,14.1094-4.3594,5.2149-13.6133,5.2148Zm11.4678-39.416h4.1533a7.3207,7.3207,0,0,0,5.5547-2.2305,8.7515,8.7515,0,0,0,2.1211-6.2832q0-9.41-7.4941-9.4121h-4.335Zm0,29.9805h4.7861q4.4239,0,6.3887-2.5518,1.9644-2.55,1.9649-7.6982,0-5.2822-2.2354-7.7891-2.2353-2.5048-7.2021-2.5058h-3.7022Z" style="fill: #282828"/>
          <path d="M408.8294,441.9142V375.1359h11.4688v56.8h18.0156v9.9785Z" style="fill: #282828"/>
          <path d="M459.183,441.9142V375.1359h30.7021v9.9785H470.6507v17.2471h14.81V412.34h-14.81v19.5957H491.15v9.9785Z" style="fill: #282828"/>
          <path d="M514.0951,441.9142V375.1359h10.6113l13.9961,38.1983h.1816V375.1359H549.223v66.7783h-9.9785l-14.6289-41.7187h-.1807v41.7187Z" style="fill: #282828"/>
          <path d="M574.2005,441.9142V375.1359H591.223q18.1055,0,18.1055,20.1826v26.459q0,20.1387-18.1055,20.1367Zm11.4688-9.4355h3.9726q4.6055,0,6.4121-2.0322,1.8048-2.0318,1.8067-7.3145V393.9191q0-5.2836-1.8067-7.3154-1.8061-2.03-6.4121-2.0313h-3.9726Z" style="fill: #282828"/>
          <path d="M635.8861,441.9142V375.1359h11.4687v66.7783Z" style="fill: #282828"/>
          <path d="M673.8675,441.9142V375.1359h10.61l13.997,38.1983h.1807V375.1359h10.34v66.7783h-9.9786L684.388,400.1955h-.1816v41.7187Z" style="fill: #282828"/>
          <path d="M733.973,425.75V391.3459a17.6748,17.6748,0,0,1,4.335-12.3047q4.3329-4.8077,12.5058-4.8086,8.2177,0,12.7109,5.17,4.4913,5.171,4.4922,13.1172v4.2891H757.09q0-7.2246-1.5352-9.91a5.367,5.367,0,0,0-5.0566-2.6875q-5.1021,0-5.0576,7.3145V425.841q0,7.0444,5.373,6.999,3.4307,0,4.8545-2.123,1.4223-2.1211,1.4219-7.1338v-6.4561h-7.3145V408.051h18.7832v33.8632h-5.5537l-2.1221-5.0117a17.9231,17.9231,0,0,1-5.17,4.584,13.5607,13.5607,0,0,1-6.3886,1.3311,14.3972,14.3972,0,0,1-11.1075-4.6055Q733.9735,433.608,733.973,425.75Z" style="fill: #282828"/>
        </g>
        <text transform="translate(348.4876 349.4885)" style="font-size: 15.591090202331543px;fill: #282828;font-family: Share-Regular, Share;letter-spacing: 0.3000261248120081em">ELABOR<tspan x="74.1816" y="0" style="letter-spacing: 0.28004526180260714em">A</tspan><tspan x="86.3438" y="0">CIÓ</tspan><tspan x="120.457" y="0" style="letter-spacing: -0.1909143274377872em">	</tspan><tspan x="121.5342" y="0">N TRADICIONAL </tspan></text>
        <g>
          <path d="M460.931,779.8908V690.1q0-26.72,10.8916-39.0069,10.8911-12.2826,34.7646-12.2841,23.87,0,34.7637,12.2841,10.8912,12.2858,10.8916,39.0069v89.791q0,26.7231-10.8916,39.0068-10.894,12.2858-34.7637,12.2852-23.874,0-34.7646-12.2852Q460.93,806.615,460.931,779.8908Zm30.6484,7.8682q0,17.8418,15.0078,17.9043,15.0073.0658,15.0069-17.9043V682.1056q0-17.8387-15.0069-17.8418-15.0072,0-15.0078,17.8418Z" style="fill: #e5c86a"/>
          <path d="M569.5667,779.8908V690.1q0-26.72,11.1748-39.0069,11.1753-12.2826,35.7373-12.2841,19.1016-.252,30.9278,11.5244,11.8257,11.7787,11.8252,30.0146v11.3985H628.9632v-9.625q0-17.8564-13.6777-17.8575-15.0718,0-15.07,17.8379v43.7735q6.9639-6.999,12.1582-9.7364,5.1914-2.7363,14.3105-2.7363,15.07,0,24.6328,9.4453,9.56,9.4438,9.5616,28.97V774.131q0,29.9195-10.7647,43.4864-10.7666,13.5659-34.8281,13.5654-23.811,0-34.7637-12.2852Q569.5663,806.615,569.5667,779.8908Zm30.6485,7.8857q0,17.8243,15.0078,17.8868,15.0074.0658,15.0068-17.8868V756.8078q0-17.8213-13.4238-17.9492-5.9545,0-16.5908,8.5957Z" style="fill: #e5c86a"/>
        </g>
        <text transform="translate(347.882 481.5865)" style="font-size: 19.87626075744629px;fill: #282828;font-family: Share-Regular, Share">El maest<tspan x="67.5781" y="0" style="letter-spacing: -0.014985291556331349em">r</tspan><tspan x="73.998" y="0">o </tspan><tspan x="89.3027" y="0" style="letter-spacing: -0.014985291556331349em">r</tspan><tspan x="95.7227" y="0">one</tspan><tspan x="125.2188" y="0" style="letter-spacing: -0.014985291556331349em">r</tspan><tspan x="131.6387" y="0">o define la p</tspan><tspan x="230.9385" y="0" style="letter-spacing: -0.014936159452867966em">r</tspan><tspan x="237.3594" y="0">opo</tspan><tspan x="267.5508" y="0" style="letter-spacing: -0.014985291556331349em">r</tspan><tspan x="273.9707" y="0" style="letter-spacing: -0.00004913210346338147em">ción final de</tspan><tspan x="0" y="20.1367">agua</tspan><tspan x="39.2354" y="20.1367" style="letter-spacing: -0.014985291556331349em">r</tspan><tspan x="45.6553" y="20.1367">diente y destilados de caña. El </tspan><tspan x="293.0908" y="20.1367" style="letter-spacing: -0.014985291556331349em">r</tspan><tspan x="299.5107" y="20.1367">esto es agua</tspan><tspan x="0" y="40.2725">osmotizada y una gota de ca</tspan><tspan x="228.9316" y="40.2725" style="letter-spacing: -0.004962342449801528em">r</tspan><tspan x="235.5508" y="40.2725" style="letter-spacing: -0.00004913210346338147em">amelo, un p</tspan><tspan x="328.9678" y="40.2725" style="letter-spacing: -0.014985291556331349em">r</tspan><tspan x="335.3877" y="40.2725">o</tspan><tspan x="345.5244" y="40.2725" style="letter-spacing: -0.01002294910652982em">c</tspan><tspan x="353.3555" y="40.2725">eso</tspan><tspan x="0" y="60.4092">habitual en la industria, que se emplea </tspan><tspan x="314.7559" y="60.4092" style="letter-spacing: -0.01503442365979473em">ex</tspan><tspan x="332.6836" y="60.4092" style="letter-spacing: -0.00004913210346338147em">clusivamente</tspan><tspan x="0" y="80.5449">pa</tspan><tspan x="19.4785" y="80.5449" style="letter-spacing: -0.004962342449801528em">r</tspan><tspan x="26.0977" y="80.5449" style="letter-spacing: -0.00004913210346338147em">a homogeneizar el </tspan><tspan x="178.7451" y="80.5449" style="letter-spacing: -0.01002294910652982em">c</tspan><tspan x="186.5762" y="80.5449">olo</tspan><tspan x="212.1162" y="80.5449" style="letter-spacing: -0.049967349222258955em">r</tspan><tspan x="217.8408" y="80.5449" style="letter-spacing: 0.00004913210346338147em">. Ron </tspan><tspan x="263.1787" y="80.5449" style="letter-spacing: -0.01002294910652982em">F</tspan><tspan x="272.083" y="80.5449" style="letter-spacing: -0.004962342449801528em">r</tspan><tspan x="278.7021" y="80.5449" style="letter-spacing: -0.00004913210346338147em">ancis</tspan><tspan x="319.209" y="80.5449" style="letter-spacing: -0.01002294910652982em">c</tspan><tspan x="327.04" y="80.5449">o Monte</tspan><tspan x="390.7422" y="80.5449" style="letter-spacing: -0.014936159452867966em">r</tspan><tspan x="397.1631" y="80.5449">o</tspan><tspan x="0" y="100.6816">y Ron Reserva Monte</tspan><tspan x="165.8252" y="100.6816" style="letter-spacing: -0.014985291556331349em">r</tspan><tspan x="172.2451" y="100.6816">o </tspan><tspan x="187.5498" y="100.6816" style="letter-spacing: -0.01002294910652982em">c</tspan><tspan x="195.3809" y="100.6816">ontienen 40° alc/</tspan><tspan x="331.0938" y="100.6816" style="letter-spacing: -0.014985291556331349em">v</tspan><tspan x="339.9785" y="100.6816">ol,</tspan><tspan x="0" y="120.8174">mient</tspan><tspan x="45.1182" y="120.8174" style="letter-spacing: -0.004962342449801528em">r</tspan><tspan x="51.7373" y="120.8174">as que Ron </tspan><tspan x="144.2998" y="120.8174" style="letter-spacing: -0.01002294910652982em">P</tspan><tspan x="154.0391" y="120.8174">álido Monte</tspan><tspan x="247.457" y="120.8174" style="letter-spacing: -0.014985291556331349em">r</tspan><tspan x="253.877" y="120.8174">o</tspan><tspan x="0" y="140.9541">y Ron Plata Monte</tspan><tspan x="144.2402" y="140.9541" style="letter-spacing: -0.014985291556331349em">r</tspan><tspan x="150.6602" y="140.9541">o tienen 3</tspan><tspan x="230.4424" y="140.9541" style="letter-spacing: -0.10003296265144467em">7</tspan><tspan x="237.7959" y="140.9541">,5° alc/</tspan><tspan x="293.4092" y="140.9541" style="letter-spacing: -0.01503442365979473em">v</tspan><tspan x="302.293" y="140.9541">ol.</tspan></text>
      </g>
    </g>
  </g>
</svg>
