<?xml version="1.0" encoding="utf-8"?>
<!-- Generator: Adobe Illustrator 21.0.2, SVG Export Plug-In . SVG Version: 6.00 Build 0)  -->
<svg version="1.1" id="Layer_1" xmlns="http://www.w3.org/2000/svg" xmlns:xlink="http://www.w3.org/1999/xlink" x="0px" y="0px"
	 viewBox="0 0 1133 1197.4" style="enable-background:new 0 0 1133 1197.4;" xml:space="preserve">
<style type="text/css">
	.st0{fill:#E5C86A;}
	.st1{fill:#282828;}
	.st2{font-family:'Share-Regular';}
	.st3{font-size:15.521px;}
	.st4{letter-spacing:4;}
	.st5{font-family:'TradeGothic-BoldCondTwenty';}
	.st6{font-size:92.3178px;}
	.st7{letter-spacing:13;}
	.st8{font-size:19.803px;}
</style>
<title>MateriaPrima</title>
<g id="Layer_2">
	<g id="Layer_13">
		<g id="MateriaPrima">
			<g id="RonDeMotril_Nueva">
				<g id="MateriaPrima-2">
					
						<image style="overflow:visible;enable-background:new    ;" width="1874" height="1980" id="MateriaPrima-3" xlink:href="MateriaPrima1.png"  transform="matrix(0.6047 0 0 0.6047 -6.859059e-02 6.491112e-02)">
					</image>
				</g>
			</g>
			<g>
				<path class="st0" d="M237.7,732.9v-89.8c0-17.8,3.6-30.8,10.9-39c7.3-8.2,18.8-12.3,34.8-12.3c15.9,0,27.5,4.1,34.8,12.3
					c7.3,8.2,10.9,21.2,10.9,39v89.8c0,17.8-3.6,30.8-10.9,39c-7.3,8.2-18.9,12.3-34.8,12.3c-15.9,0-27.5-4.1-34.8-12.3
					C241.3,763.7,237.7,750.7,237.7,732.9z M268.3,740.7c0,11.9,5,17.9,15,17.9c10,0,15-5.9,15-17.9V635.1c0-11.9-5-17.8-15-17.8
					c-10,0-15,5.9-15,17.8V740.7z"/>
				<path class="st0" d="M354.8,633.3v-17.5c16.3-8.3,29.1-16.3,38.2-24.1h16.3v189.8h-29V633.3H354.8z"/>
			</g>
			<text transform="matrix(1 0 0 1 491.17 314.6677)" class="st1 st2 st3 st4">TRADITIONAL CRAFTSMANSHIP</text>
			<text transform="matrix(1 0 0 1 486.6934 407.8823)"><tspan x="0" y="0" class="st1 st5 st6 st7">RAW</tspan><tspan x="0" y="88" class="st1 st5 st6 st7">MATERIALS</tspan></text>
			<text transform="matrix(1 0 0 1 489.1065 528.7331)"><tspan x="0" y="0" class="st1 st2 st8">The juice is refined, filtered and heated to</tspan><tspan x="0" y="20" class="st1 st2 st8">achieve crystallization of approximately half</tspan><tspan x="0" y="40" class="st1 st2 st8">the sugars. From that we obtain a dark and</tspan><tspan x="0" y="60" class="st1 st2 st8">thick honey called molasses.</tspan><tspan x="0" y="80" class="st1 st2 st8"> </tspan><tspan x="0" y="100" class="st1 st2 st8">After a trajectory of more than 1,000 years,</tspan><tspan x="0" y="120" class="st1 st2 st8">sugarcane harvesting was discontinued in our</tspan><tspan x="0" y="140" class="st1 st2 st8">area in 2006. Because of this, our sugar mill,</tspan><tspan x="0" y="160" class="st1 st2 st8">Azucarera Montero, has been importing high</tspan><tspan x="0" y="180" class="st1 st2 st8">quality molasses from various parts of the</tspan><tspan x="0" y="200" class="st1 st2 st8">world that still harvest it. This gives a great</tspan><tspan x="0" y="220" class="st1 st2 st8">advantage to our rum, which benefits from</tspan><tspan x="0" y="240" class="st1 st2 st8">the purchasing power of the only sugarcane</tspan><tspan x="0" y="260" class="st1 st2 st8">molasses distillery in Europe.</tspan></text>
		</g>
	</g>
</g>
</svg>
